{
    "properties": {
        "amountType": {
            "type": "object",
            "description": "A number of monetary units specified in a currency where the unit of the currency is explicit or implied.",
            "properties": {
                "value": {
                    "type": "string",
                    "description": "The value of the filed."
                },
                "currencyID": {
                    "type": "string",
                    "description": "The currency of the amount.."
                },
                "currencyCodeListVersionID": {
                    "type": "string",
                    "description": "The VersionID of the UN/ECE Rec9 code list."
                },
                "exponent": {
                    "type": "string",
                    "description": "The currency exponent used for expressing the relationship between a major currency unit and its corresponding minor currency unit.It assumes a base of 10."
                }
            },
            "required": [
                "value"
            ]
        },
        "binaryObjectType": {
            "type": "object",
            "description": "A set of finite-length sequences of binary octets.",
            "properties": {
                "value": {
                    "type": "string",
                    "description": "A particular point in the progression of time together with the relevant supplementary information."
                },
                "format": {
                    "type": "string"
                },
                "mimeCode": {
                    "type": "string"
                },
                "encodingCode": {
                    "type": "string"
                },
                "characterSetCode": {
                    "type": "string"
                },
                "uri": {
                    "type": "string"
                },
                "fileName": {
                    "type": "string"
                }
            },
            "required": [
                "value"
            ]
        },
        "characteristicType": {
            "type": "object",
            "description": " The set characteristics associated.",
            "properties": {
                "characteristicsValue": {
                    "type": "array",
                    "minItems": 1,
                    "items": {
                        "type": "object",
                        "description": "The set of characteristics for the specification.",
                        "properties": {
                            "characteristicName": {
                                "type": "string",
                                "description": "The name of the characteristic"
                            },
                            "value": {
                                "type": "string",
                                "description": "The value of the characteristic"
                            },
                            "type": {
                                "type": "string",
                                "description": "A classification of the business object or component. This identifies the sub-type of the instance of object or component."
                            },
                            "description": {
                                "type": "string",
                                "description": "A free text description of the characteristic."
                            },
                            "creationTime": {
                                "type": "object",
                                "description": "A particular point in the progression of time together with the relevant supplementary information.Date Time string",
                                "properties": {
                                    "value": {
                                        "type": "string",
                                        "description": "A particular point in the progression of time together with the relevant supplementary information."
                                    },
                                    "format": {
                                        "type": "string"
                                    }
                                },
                                "required": [
                                    "value"
                                ]
                            },
                            "validityPeriod": {
                                "type": "object",
                                "description": "A component that states the date and time from which this business object is effective (or valid) and the date and time to which it is effective. Again the ISO8601 standard must be used.",
                                "properties": {
                                    "fromDate": {
                                        "type": "object",
                                        "description": "A particular point in the progression of time together with the relevant supplementary information.",
                                        "properties": {
                                            "dateString": {
                                                "type": "object",
                                                "properties": {
                                                    "value": {
                                                        "type": "string",
                                                        "description": "A particular point in the progression of time together with the relevant supplementary information.Date Time string"
                                                    },
                                                    "dateStringformat": {
                                                        "type": "string"
                                                    }
                                                }
                                            },
                                            "date": {
                                                "type": "string"
                                            }
                                        }
                                    },
                                    "toDate": {
                                        "type": "object",
                                        "description": "A particular point in the progression of time together with the relevant supplementary information.",
                                        "properties": {
                                            "dateString": {
                                                "type": "object",
                                                "properties": {
                                                    "value": {
                                                        "type": "string",
                                                        "description": "A particular point in the progression of time together with the relevant supplementary information.Date Time string"
                                                    },
                                                    "dateStringformat": {
                                                        "type": "string"
                                                    }
                                                }
                                            },
                                            "date": {
                                                "type": "string"
                                            }
                                        }
                                    }
                                }
                            }
                        }
                    }
                }
            }
        },
        "characteristicsValueType": {
            "type": "array",
            "minItems": 1,
            "items": {
                "type": "object",
                "description": "The set of characteristics for the specification.",
                "properties": {
                    "characteristicName": {
                        "type": "string",
                        "description": "The name of the characteristic"
                    },
                    "value": {
                        "type": "string",
                        "description": "The value of the characteristic"
                    },
                    "type": {
                        "type": "string",
                        "description": "A classification of the business object or component. This identifies the sub-type of the instance of object or component."
                    },
                    "description": {
                        "type": "string",
                        "description": "A free text description of the characteristic."
                    },
                    "creationTime": {
                        "type": "object",
                        "description": "A particular point in the progression of time together with the relevant supplementary information.Date Time string",
                        "properties": {
                            "value": {
                                "type": "string",
                                "description": "A particular point in the progression of time together with the relevant supplementary information."
                            },
                            "format": {
                                "type": "string"
                            }
                        },
                        "required": [
                            "value"
                        ]
                    },
                    "validityPeriod": {
                        "type": "object",
                        "description": "A component that states the date and time from which this business object is effective (or valid) and the date and time to which it is effective. Again the ISO8601 standard must be used.",
                        "properties": {
                            "fromDate": {
                                "type": "object",
                                "description": "A particular point in the progression of time together with the relevant supplementary information.",
                                "properties": {
                                    "dateString": {
                                        "type": "object",
                                        "properties": {
                                            "value": {
                                                "type": "string",
                                                "description": "A particular point in the progression of time together with the relevant supplementary information.Date Time string"
                                            },
                                            "dateStringformat": {
                                                "type": "string"
                                            }
                                        }
                                    },
                                    "date": {
                                        "type": "string"
                                    }
                                }
                            },
                            "toDate": {
                                "type": "object",
                                "description": "A particular point in the progression of time together with the relevant supplementary information.",
                                "properties": {
                                    "dateString": {
                                        "type": "object",
                                        "properties": {
                                            "value": {
                                                "type": "string",
                                                "description": "A particular point in the progression of time together with the relevant supplementary information.Date Time string"
                                            },
                                            "dateStringformat": {
                                                "type": "string"
                                            }
                                        }
                                    },
                                    "date": {
                                        "type": "string"
                                    }
                                }
                            }
                        }
                    }
                }
            }
        },
        "codeType": {
            "type": "object",
            "description": "A character string (letters, figures, or symbols) that for brevity and/or languange independence may be used to represent or replace a definitive value or text of an attribute together with relevant supplementary information. Code string Should not be used if the character string identifies an instance of an object class or an object in the real world, in which case the Identifier. Type should be used.",
            "properties": {
                "value": {
                    "type": "string",
                    "description": "A particular point in the progression of time together with the relevant supplementary information."
                },
                "listID": {
                    "type": "string"
                },
                "listAgencyID": {
                    "type": "string"
                },
                "listAgencyName": {
                    "type": "string"
                },
                "listName": {
                    "type": "string"
                },
                "listVersionID": {
                    "type": "string"
                },
                "name": {
                    "type": "string"
                },
                "languageID": {
                    "type": "string"
                },
                "listURI": {
                    "type": "string"
                },
                "listSchemeURI": {
                    "type": "string"
                }
            },
            "required": [
                "value"
            ]
        },
        "dateTimeType": {
            "type": "object",
            "description": "A particular point in the progression of time together with the relevant supplementary information.Date Time string",
            "properties": {
                "value": {
                    "type": "string",
                    "description": "A particular point in the progression of time together with the relevant supplementary information."
                },
                "format": {
                    "type": "string"
                }
            },
            "required": [
                "value"
            ]
        },
        "dateType": {
            "type": "object",
            "description": "A particular point in the progression of time together with the relevant supplementary information.",
            "properties": {
                "dateString": {
                    "type": "object",
                    "properties": {
                        "value": {
                            "type": "string",
                            "description": "A particular point in the progression of time together with the relevant supplementary information.Date Time string"
                        },
                        "dateStringformat": {
                            "type": "string"
                        }
                    }
                },
                "date": {
                    "type": "string"
                }
            }
        },
        "dayType": {
            "type": "string",
            "enum": [
                "Monday",
                "Tuesday",
                "Wednesday",
                "Thursday",
                "Friday",
                "Saturday",
                "Sunday"
            ]
        },
        "IDType": {
            "type": "object",
            "description": "A character string to identify and distinguish uniquely, one instance of an object in an identification scheme from all other objects in the same scheme together with relevant supplementary information.Identifier string",
            "properties": {
                "value": {
                    "type": "string",
                    "description": "The value of the field."
                },
                "schemeID": {
                    "type": "string"
                },
                "schemeName": {
                    "type": "string"
                },
                "schemeAgencyName": {
                    "type": "string"
                }
            },
            "required": [
                "value"
            ]
        },
        "indicatorType": {
            "type": "object",
            "description": "A list of two mutually exclusive Boolean values that express the only possible states of a Property.",
            "properties": {
                "indicatorString": {
                    "type": "object",
                    "properties": {
                        "value": {
                            "type": "string",
                            "description": "A particular point in the progression of time together with the relevant supplementary information."
                        },
                        "format": {
                            "type": "string"
                        }
                    },
                    "required": [
                        "value"
                    ]
                },
                "indicator": {
                    "type": "boolean"
                }
            }
        },
        "measureType": {
            "type": "object",
            "description": "A numeric value determined by measuring an object along with the specified unit of measure.",
            "properties": {
                "value": {
                    "type": "string",
                    "description": "A particular point in the progression of time together with the relevant supplementary information."
                },
                "unitCode": {
                    "type": "string"
                }
            },
            "required": [
                "value"
            ]
        },
        "numericType": {
            "type": "object",
            "description": "Numeric information that is assigned or is determined by calculation, counting, or sequencing. It does not require a unit of quantity or unit of measure.",
            "properties": {
                "value": {
                    "type": "string",
                    "description": "A particular point in the progression of time together with the relevant supplementary information."
                },
                "format": {
                    "type": "string"
                }
            },
            "required": [
                "value"
            ]
        },
        "quantityType": {
            "type": "object",
            "description": "A counted number of non-monetary units possibly including fractions.",
            "properties": {
                "value": {
                    "type": "string",
                    "description": "A particular point in the progression of time together with the relevant supplementary information."
                },
                "unitCode": {
                    "type": "string"
                },
                "unitCodeListAgencyID": {
                    "type": "string"
                },
                "unitCodeListAgencyName": {
                    "type": "string"
                }
            },
            "required": [
                "value"
            ]
        },
        "textType": {
            "type": "object",
            "description": "A character string (i.e. a finite set of characters) generally in the form of words of a language.",
            "properties": {
                "value": {
                    "type": "string",
                    "description": "The value of the field."
                },
                "languageID": {
                    "type": "string",
                    "description": "The identifier of the language used in the content component."
                },
                "languageLocaleID": {
                    "type": "string",
                    "description": "The identification of the locale of the language."
                }
            },
            "required": [
                "value"
            ]
        },
        "durationType": {
            "type": "string",
            "description": "Duration represents a duration of time. \n\t\t\tThe value space of duration is a six-dimensional space where the coordinates \n\t\t\tdesignate the Gregorian year, month, day, hour, minute, and second components \n\t\t\tdefined in 5.5.3.2 of [ISO 8601], respectively. \n\t\t\tThese components are ordered in their significance by their order of appearance \n\t\t\ti.e. as year, month, day, hour, minute, and second"
        },
        "percentType": {
            "type": "number",
            "description": "A percent is a value representing a fraction of one hundred, expressed as a quotient -- Usage  Percent. \n\t\t\tType is used to represent a percentage that indicates how many hundredths of a basic value are to be calculated. \n\t\t\tThe result of the calculation is the proportion in percent of, e.g., amounts, values, rates, discounts, and taxes. \n\t\t\tFor example, \"8.25%\" should be passed as \"8.25\", \"10%\" should be passed as \"10\" or \"10.0\" etc, \"150%\" should be passed as \"150\" or \"150.0\" etc."
        },
        "URIType": {
            "type": "string",
            "description": "anyURI represents a Uniform Resource Identifier Reference (URI). An anyURI value can be absolute or relative, and may have an optional fragment identifier (i.e., it may be a URI Reference). \n\t\t\tThis type should be used to specify the intention that the value fulfills the role of a URI as defined by [RFC 2396], as amended by [RFC 2732]"
        }
    }
}