﻿{
    "properties": {
        "timestamp": {
            "type": "string"
        },
        "originator": {
            "type": "array",
            "items": {
                "type": "object",
                "properties": {
                    "address": {
                        "type": "string",
                        "description": ""
                    },
                    "reference-parameters": {
                        "type": "array",
                        "items": {
                            "properties": {}
                        }
                    },
                    "metadata": {
                        "type": "array",
                        "items": {
                            "properties": {}
                        }
                    }
                }
            }
        },
        "errorCode": {
            "type": "array",
            "items": {
                "type": "object",
                "properties": {
                    "value": {
                        "type": "string"
                    },
                    "dialect": {
                        "type": "string"
                    }
                },
                "required": [
                    "value"
                ]
            }
        },
        "description": {
            "type": "array",
            "items": {
                "type": "object",
                "properties": {
                    "value": {
                        "type": "string"
                    },
                    "lang": {
                        "type": "string"
                    }
                },
                "required": [
                    "value"
                ]
            }
        },
        "faultCause": {
            "type": "object",
            "description": "The legacy fault from the backend system.",
            "properties": {
            }
        },
        "name": {
            "type": "string",
            "description": "A human readable short text name for the fault. Required if the Error Code >= 100, may be omitted or set to "
        },
        "severity": {
            "type": "string",
            "description": "The degree of severity and impact the fault has inccured, provides an indication of the level that may be used to trigger different behaviours in the consumer. Required if the Error Code >= 100, may be omitted or set to Information if the object is being used to indicate success."
        },
        "category": {
            "type": "string",
            "description": "A classification of the fault indicating whether it has been generated through some technical aspect of the interaction or on account of a failure of business logic, rules or processing. It provides an indication of the type that may be used to trigger different behaviours in the consumer. Required if the Error Code >= 100, may be omitted or set to Business if the object is being used to indicate success."
        },
        "reasonCode": {
            "type": "string",
            "description": "An enumeration of the reasons why the fault has been generated by the provider. Currently this is not used."
        },
        "message": {
            "type": "string",
            "description": "A human readable description of the fault as identified by the Error Code. Required if the Error Code >= 100, may be omitted or set to "
        },
        "characteristic": {
            "type": "array",
            "items": {
                "type": "object",
                "description": "A characteristic of the fault; these have both a name and a value.",
                "properties": {
                    "name": {
                        "type": "string"
                    },
                    "value": {
                        "type": "string"
                    }
                },
                "required": [
                    "name",
                    "value"
                ]
            }
        },
        "failure": {
            "type": "array",
            "items": {
                "type": "object",
                "description": "A component that describes individual failures within the fault. This component is used to support multiple causes to the fault; i.e. where the fault is generated from one or more API calls or one or more validation failures.",
                "properties": {
                    "code": {
                        "type": "string",
                        "description": "The code identifying the specific failure."
                    },
                    "text": {
                        "type": "string",
                        "description": "The human-readable text of the specific failure."
                    },
                    "dataRef": {
                        "type": "object",
                        "description": "A reference to the specific field or component within the VBO that generated the failure.",
                        "properties": {
                            "pathName": {
                                "type": "string",
                                "description": "The pseudo-JSON Path reference to the specific field or component within the VBO."
                            },
                            "pathValueText": {
                                "type": "string",
                                "description": "The value of the field referenced by the Path Name."
                            }
                        }
                    },
                    "Severity": {
                        "type": "string",
                        "description": "The degree of severity and impact the fault has inccured, provides an indication of the level that may be used to trigger different behaviours in the consumer. Required if the Error Code >= 100, may be omitted or set to Information if the object is being used to indicate success."
                    }
                }
            }
        }
    },
    "required": [
        "timestamp"
    ]
}
