{
    "properties": {
        "eventType": {
            "type": "string",
            "description": "The type associated with the event."
        },
        "eventTime": {
            "type": "string",
            "description": "The time event occurs."
        },
        "eventId": {
            "type": "string",
            "description": "The unique identifier associated with the event."
        },
        "event": {
            "type": "object",
            "description": "The event body.",
            "properties": {
            }
        }
    }
}
