{
    "properties": {
        "id": {
            "type": "string",
            "description": " The Identifier for the Monitor component. These should be used to uniquely identify instance of the Monitor component.",
            "title": "Monitor Identifier"
        },
        "type": {
            "title": "Monitor Type",
            "description": "Used in the URIs as the identifier for specific instance of a type.",
            "type": "string"
        },
        "name": {
            "title": "Name",
            "description": "Name of a resource, i.e., monitor.",
            "type": "string"
        },
        "request": {
            "title": "Monitor request",
            "description": "Represents the request.",
            "type": "object"
        },
        "response": {
            "title": "Monitor response",
            "description": "Represents the response.",
            "type": "object"
        },
        "state": {
            "title": "Monitor State",
            "description": "The monitor state of the resource.",
            "type": "string",
            "enum": [
                "InProgress",
                "InError",
                "Completed"
            ]
        },
        "href": {
            "title": "HREF",
            "description": "A hyperlink URL",
            "type": "string"
        },
        "sourceHref": {
            "title": "SOURCEHREF",
            "description": "A hyperlink URL",
            "type": "string"
        }
    }
}