﻿{
    "queryOptions": {
        "filter":"$.parts.individual.individualName.firstName, $.parts.individual.individualName.lastName",
        "pagination": {
            "count":10,
            "limit":20            
        },
        "sorting": "-$.type"
    },
    "queries": [
        {
            "query": "   $.type=Consumer & $.parts.individual.individualName.firstName=John &  $.parts.individual.individualName.lastName=Watkinson"
        },        
        {
            "operator":"OR"
        }, 
        {
            "query": "$.parts.organisation.name=TradingTPS"
        },
        {
            "operator":"AND"
        }, 
        {
            "query": "   $.status=Active"            
        }        
    ]
}