{
    "$schema": "http://json-schema.org/draft-06/schema#",
    "$id": "ShippingOrderVBO.json",
    "title": "ShippingOrderVBO",
    "description": "The Shipping Order service is an Entity service that allows to create shipping orders in a Warehouse system (backend system). A shipping order is created as result of a customer buying an item over a selling channel (CSR; IVR). The service also allowsto update and query shipping orders in the backend system. Notification of \"create\" and \"update\" shipping order events to service consumers is another capability provided by the service.",
    "type": "object",
    "properties": {
        "_links": {
            "type": "array",
            "items": {
                "$ref": "../../../Common/V1/Links.json#/properties/_links"
            }
        },
        "id": {
            "type": "array",
            "description": "The set of Identifiers for the VBO or component. These should be used to uniquely identifier instances of the business object or component.",
            "minItems": 1,
            "items": {
                "$ref": "../../../Common/V1/BasicComponents.json#/properties/IDType"
            }
        },
        "name": {
            "type": "string",
            "description": "The name of the instance of a business object or component."
        },
        "desc": {
            "type": "string",
            "description": "A free text description of a business object or component."
        },
        "type": {
            "type": "string",
            "description": "A classification of the business object or component. This identifies the sub-type of the instance of object or component."
        },
        "category": {
            "type": "array",
            "description": "The set of classifications for the business object or component.",
            "minItems": 1,
            "items": {
                "type": "object",
                "description": "A classification applied to the business object or component. More than one classification scheme can be applied using the @listName attribute to identify the type of code list being used. The classification scheme can be used to group instances of the object or component.",
                "properties": {
                    "value": {
                        "type": "string",
                        "description": "The value of the field."
                    },
                    "listHierarchyId": {
                        "type": "string",
                        "description": "An indication of the hierarchy level of the category when involved in a hierarchical classification, e.g. level 1 -> Category/@listHierarchyID=1, level 2 -> Category/@listHierarchyID=2. In this case the listName should be the same for each level to show their relationship."
                    }
                },
                "required": [
                    "value"
                ]
            }
        },
        "status": {
            "type": "string",
            "description": "The lifecycle state of the business object or component. This field is used to track the specific state an instance of an object or component is in; e.g. the Susbscription is Active or the Customer Request has been Cancelled."
        },
        "version": {
            "type": "string",
            "description": "A field that identifies the specific version of an instance of a business object or component. This field should be used in support of multi-agent environments to control the concurrency (locking) of the instance."
        },
        "created": {
            "$ref": "../../../Common/V1/BasicComponents.json#/properties/dateTimeType"
        },
        "createdBy": {
            "$ref": "../../../Common/V1/BasicComponents.json#/properties/IDType"
        },
        "lastModified": {
            "$ref": "../../../Common/V1/BasicComponents.json#/properties/dateTimeType"
        },
        "lastModifiedBy": {
            "$ref": "../../../Common/V1/BasicComponents.json#/properties/IDType"
        },
        "validityPeriod": {
            "$ref": "../../../Common/V1/CommonComponents.json#/properties/validityPeriodType"
        },
        "lastActivityDate": {
            "$ref": "../../../Common/V1/BasicComponents.json#/properties/dateTimeType"
        },
        "details": {
            "type": "object",
            "description": "The set of attributes for a Shipping Order outside of the standard attributes.",
            "properties": {
                "shippingInstruction": {
                    "type": "string",
                    "description": "The ShippingInstructions of the Shipping Order VBO"
                },
                "shippingMethodCode": {
                    "type": "string",
                    "description": "The ShippingMethodCode of the Shipping Order VBO"
                },
                "shippingAmount": {
                    "$ref": "../../../Common/V1/BasicComponents.json#/properties/amountType"
                },
                "expectedDeliveryPeriod": {
                    "type": "object",
                    "description": "The ExpectedDeliveryPeriod of the Shipping Order VBO",
                    "properties": {
                        "startDateTime": {
                            "$ref": "../../../Common/V1/BasicComponents.json#/properties/dateTimeType"
                        },
                        "endDateTime": {
                            "$ref": "../../../Common/V1/BasicComponents.json#/properties/dateTimeType"
                        }
                    }
                },
                "partialIndicator": {
                    "$ref": "../../../Common/V1/BasicComponents.json#/properties/indicatorType"
                },
                "promisedDeliveryDateTime": {
                    "$ref": "../../../Common/V1/BasicComponents.json#/properties/dateTimeType"
                },
                "reason": {
                    "type": "array",
                    "description": " ",
                    "minItems": 1,
                    "items": {
                        "type": "object",
                        "description": "",
                        "properties": {
                            "reasonCode": {
                                "type": "string",
                                "description": " The reason code describing why the transition occured."
                            },
                            "reasonText": {
                                "type": "string",
                                "description": " The reason text describing why the transition occured."
                            }
                        }
                    }
                },
                "externalReferences": {
                    "type": "array",
                    "description": " The set of references to external entities and resources outside of the CSM services.",
                    "minItems": 1,
                    "items": {
                        "type": "object",
                        "description": " An external reference to an entity or resource external to the abstraction.",
                        "properties": {
                            "typeCode": {
                                "type": "string",
                                "description": " The type of external reference being made. This not the type of the object being referenced."
                            },
                            "referenceId": {
                                "$ref": "../../../Common/V1/BasicComponents.json#/properties/IDType"
                            },
                            "name": {
                                "type": "string",
                                "description": " The Name of external reference being made."
                            },
                            "type": {
                                "type": "string",
                                "description": " The Type of the reference Identifier to the external resource."
                            }
                        }
                    }
                }
            }
        },
        "relatedShippingOrder": {
            "type": "array",
            "description": "The set of Identifiers for the VBO or component. These should be used to uniquely identifier instances of the business object or component.",
            "minItems": 1,
            "items": {
                "type": "object",
                "allOf": [
                    {
                        "$ref": "../../../Common/V1/CommonComponents.json#/properties/baseComponentType"
                    },
                    {
                        "properties": {
                            "_links": {
                                "type": "array",
                                "items": {
                                    "$ref": "../../../Common/V1/Links.json#/properties/_links"
                                }
                            }
                        }
                    }
                ]
            }
        },
        "roles": {
            "type": "object",
            "properties": {
                "shipFromParty": {
                    "allOf": [
                        {
                            "$ref": "../../../Common/V1/CommonComponents.json#/properties/baseComponentType"
                        },
                        {
                            "properties": {
                                "_links": {
                                    "type": "array",
                                    "items": {
                                        "$ref": "../../../Common/V1/Links.json#/properties/_links"
                                    }
                                }
                            }
                        }
                    ]
                },
                "shipToParty": {
                    "allOf": [
                        {
                            "$ref": "../../../Common/V1/CommonComponents.json#/properties/baseComponentType"
                        },
                        {
                            "properties": {
                                "_links": {
                                    "type": "array",
                                    "items": {
                                        "$ref": "../../../Common/V1/Links.json#/properties/_links"
                                    }
                                },
                                "shippingContact": {
                                    "type": "object",
                                    "properties": {
                                        "contactPerson": {
                                            "type": "object",
                                            "properties": {
                                                "title": {
                                                    "type": "string",
                                                    "description": "Is the title of the person. e.g. Mr.; Dr. Ms."
                                                },
                                                "fullName": {
                                                    "type": "string",
                                                    "description": "The full name of the person."
                                                },
                                                "organization": {
                                                    "type": "string",
                                                    "description": "If the Party is an organisation then this component holds the details of the organisation."
                                                },
                                                "department": {
                                                    "type": "string",
                                                    "description": "The department name from which the person belongs to within the organisation."
                                                }
                                            }
                                        },
                                        "contactPoint": {
                                            "type": "array",
                                            "description": "The set of contact points for the Ship To Party party. These may be e-mail; postal address; telephone number; etc.",
                                            "minItems": 1,
                                            "items": {
                                                "allOf": [
                                                    {
                                                        "$ref": "../../../Common/V1/CommonComponents.json#/properties/contactPointType"
                                                    },
                                                    {
                                                        "properties": {
                                                            "_links": {
                                                                "type": "array",
                                                                "items": {
                                                                    "$ref": "../../../Common/V1/Links.json#/properties/_links"
                                                                }
                                                            }
                                                        }
                                                    }
                                                ]
                                            }
                                        }
                                    }
                                }
                            }
                        }
                    ]
                },
                "billToParty": {
                    "allOf": [
                        {
                            "$ref": "../../../Common/V1/CommonComponents.json#/properties/baseComponentType"
                        },
                        {
                            "properties": {
                                "_links": {
                                    "type": "array",
                                    "items": {
                                        "$ref": "../../../Common/V1/Links.json#/properties/_links"
                                    }
                                }
                            }
                        }
                    ]
                },
                "carrier": {
                    "allOf": [
                        {
                            "$ref": "../../../Common/V1/CommonComponents.json#/properties/baseComponentType"
                        },
                        {
                            "properties": {
                                "_links": {
                                    "type": "array",
                                    "items": {
                                        "$ref": "../../../Common/V1/Links.json#/properties/_links"
                                    }
                                }
                            }
                        }
                    ]
                },
                "creator": {
                    "allOf": [
                        {
                            "$ref": "../../../Common/V1/CommonComponents.json#/properties/baseComponentType"
                        },
                        {
                            "properties": {
                                "_links": {
                                    "type": "array",
                                    "items": {
                                        "$ref": "../../../Common/V1/Links.json#/properties/_links"
                                    }
                                }
                            }
                        }
                    ]
                }
            }
        },
        "relatedParty": {
            "type": "array",
            "description": "A reference to the Parties associated with the Shipping Order.",
            "minItems": 1,
            "items": {
                "type": "object",
                "allOf": [
                    {
                        "$ref": "../../../Common/V1/CommonComponents.json#/properties/relatedPartyWithContactPersonType"
                    },
                    {
                        "properties": {
                            "specification": {
                                "type": "object",
                                "description": " ",
                                "allOf": [
                                    {
                                        "$ref": "../../../Common/V1/CommonComponents.json#/properties/specificationType"
                                    },
                                    {
                                        "properties": {
                                            "_links": {
                                                "type": "array",
                                                "items": {
                                                    "$ref": "../../../Common/V1/Links.json#/properties/_links"
                                                }
                                            }
                                        }
                                    }
                                ]
                            },
                            "organisation": {
                                "type": "object",
                                "description": "The associated organisation.",
                                "properties": {
                                    "name": {
                                        "type": "string",
                                        "description": "The name of the organisation"
                                    }
                                }
                            },
                            "isPartyAvailable": {
                                "$ref": "../../../Common/V1/BasicComponents.json#/properties/indicatorType"
                            },
                            "identification": {
                                "type": "array",
                                "description": "The set of identifications associated to a Shipping Order",
                                "minItems": 1,
                                "items": {
                                    "type": "object",
                                    "description": "A an identifications associated to the Shipping Order",
                                    "properties": {
                                        "_links": {
                                            "type": "array",
                                            "items": {
                                                "$ref": "../../../Common/V1/Links.json#/properties/_links"
                                            }
                                        },
                                        "id": {
                                            "type": "string",
                                            "description": "The id of the identification."
                                        },
                                        "type": {
                                            "type": "string",
                                            "description": "The type of identification"
                                        },
                                        "issuingAuthority": {
                                            "type": "string",
                                            "description": "The Authority which has issued the identifier (social security, town hall...)"
                                        },
                                        "issuingDate": {
                                            "$ref": "../../../Common/V1/BasicComponents.json#/properties/dateTimeType"
                                        },
                                        "validityPeriod": {
                                            "$ref": "../../../Common/V1/CommonComponents.json#/properties/validityPeriodType"
                                        },
                                        "characteristicsValue": {
                                            "type": "array",
                                            "minItems": 1,
                                            "items": {
                                                "$ref": "../../../Common/V1/BasicComponents.json#/properties/characteristicsValueType"
                                            }
                                        }
                                    }
                                }
                            },
                            "document": {
                                "type": "array",
                                "description": "A reference too or the actual binary object of an associated document to this Shipping Order.",
                                "minItems": 1,
                                "items": {
                                    "type": "object",
                                    "description": " A reference too or the actual binary object",
                                    "properties": {
                                        "_links": {
                                            "type": "array",
                                            "items": {
                                                "$ref": "../../../Common/V1/Links.json#/properties/_links"
                                            }
                                        },
                                        "id": {
                                            "type": "array",
                                            "description": " The set of Identifiers for the VBO or component. These should be used to uniquely identifier instances of the business object or component.",
                                            "minItems": 1,
                                            "items": {
                                                "$ref": "../../../Common/V1/BasicComponents.json#/properties/IDType"
                                            }
                                        },
                                        "name": {
                                            "type": "string",
                                            "description": " The name of the instance of a business object or component."
                                        },
                                        "desc": {
                                            "type": "string",
                                            "description": " A free text description of a business object or component."
                                        },
                                        "type": {
                                            "type": "string",
                                            "description": " A classification of the business object or component. This identifies the sub-type of the instance of object or component."
                                        },
                                        "category": {
                                            "type": "array",
                                            "description": " The set of classifications for the business object or component.",
                                            "minItems": 1,
                                            "items": {
                                                "type": "object",
                                                "description": " A classification applied to the business object or component. More than one classification scheme can be applied using the @listName attribute to identify the type of code list being used. The classification scheme can be used to group instances of the object or component.",
                                                "properties": {
                                                    "value": {
                                                        "type": "string",
                                                        "description": "The value of the field."
                                                    },
                                                    "listHierarchyId": {
                                                        "type": "string",
                                                        "description": " An agency that maintains one or more lists of codes."
                                                    }
                                                },
                                                "required": [
                                                    "value"
                                                ]
                                            }
                                        },
                                        "status": {
                                            "type": "string",
                                            "description": " The lifecycle state of the business object or component. This field is used to track the specific state an instance of an object or component is in"
                                        },
                                        "binaryObject": {
                                            "$ref": "../../../Common/V1/BasicComponents.json#/properties/binaryObjectType"
                                        },
                                        "size": {
                                            "$ref": "../../../Common/V1/BasicComponents.json#/properties/measureType"
                                        },
                                        "reference": {
                                            "type": "object",
                                            "description": " A reference to an external document.",
                                            "properties": {
                                                "id": {
                                                    "type": "array",
                                                    "description": " The set of identifiers referencing the same",
                                                    "minItems": 1,
                                                    "items": {
                                                        "$ref": "../../../Common/V1/BasicComponents.json#/properties/IDType"
                                                    }
                                                }
                                            }
                                        },
                                        "createdDate": {
                                            "$ref": "../../../Common/V1/BasicComponents.json#/properties/dateTimeType"
                                        },
                                        "createdBy": {
                                            "$ref": "../../../Common/V1/BasicComponents.json#/properties/IDType"
                                        },
                                        "owner": {
                                            "type": "string",
                                            "description": " Owner for the service order."
                                        },
                                        "modifiedDate": {
                                            "$ref": "../../../Common/V1/BasicComponents.json#/properties/dateTimeType"
                                        },
                                        "modifiedBy": {
                                            "$ref": "../../../Common/V1/BasicComponents.json#/properties/IDType"
                                        }
                                    }
                                }
                            },
                            "_links": {
                                "type": "array",
                                "items": {
                                    "$ref": "../../../Common/V1/Links.json#/properties/_links"
                                }
                            }
                        }
                    }
                ]
            }
        },
        "parts": {
            "type": "object",
            "properties": {
                "lineItem": {
                    "type": "array",
                    "description": "A reference to the line items associated with the Shipping Order.",
                    "minItems": 1,
                    "items": {
                        "allOf": [
                            {
                                "$ref": "../../../Common/V1/CommonComponents.json#/properties/baseComponentType"
                            },
                            {
                                "properties": {
                                    "_links": {
                                        "type": "array",
                                        "items": {
                                            "$ref": "../../../Common/V1/Links.json#/properties/_links"
                                        }
                                    },
                                    "quantity": {
                                        "$ref": "../../../Common/V1/BasicComponents.json#/properties/quantityType"
                                    },
                                    "cost": {
                                        "$ref": "../../../Common/V1/BasicComponents.json#/properties/amountType"
                                    },
                                    "serialNumber": {
                                        "type": "string",
                                        "description": "The serial number of the item to ship."
                                    },
                                    "imeiNumber": {
                                        "type": "string",
                                        "description": "The Imei number of the item to ship."
                                    },
                                    "msisdnNumber": {
                                        "type": "string",
                                        "description": "The msisdn number of the item to ship."
                                    },
                                    "productStock": {
                                        "allOf": [
                                            {
                                                "$ref": "../../../Common/V1/CommonComponents.json#/properties/baseComponentType"
                                            },
                                            {
                                                "properties": {
                                                    "_links": {
                                                        "type": "array",
                                                        "items": {
                                                            "$ref": "../../../Common/V1/Links.json#/properties/_links"
                                                        }
                                                    }
                                                }
                                            }
                                        ]
                                    },
                                    "productSpecification": {
                                        "allOf": [
                                            {
                                                "$ref": "../../../Common/V1/CommonComponents.json#/properties/specificationType"
                                            },
                                            {
                                                "properties": {
                                                    "_links": {
                                                        "type": "array",
                                                        "items": {
                                                            "$ref": "../../../Common/V1/Links.json#/properties/_links"
                                                        }
                                                    }
                                                }
                                            }
                                        ]
                                    },
                                    "lineItemCharge": {
                                        "type": "object",
                                        "description": "The Line Item Charges. ",
                                        "properties": {
                                            "price": {
                                                "type": "array",
                                                "description": " ",
                                                "minItems": 0,
                                                "items": {
                                                    "type": "object",
                                                    "properties": {
                                                        "type": {
                                                            "type": "string",
                                                            "description": "The type of line item charges."
                                                        },
                                                        "taxAmount": {
                                                            "$ref": "../../../Common/V1/BasicComponents.json#/properties/amountType"
                                                        },
                                                        "taxCode": {
                                                            "type": "string",
                                                            "description": " "
                                                        },
                                                        "netAmount": {
                                                            "$ref": "../../../Common/V1/BasicComponents.json#/properties/amountType"
                                                        },
                                                        "totalAmount": {
                                                            "$ref": "../../../Common/V1/BasicComponents.json#/properties/amountType"
                                                        },
                                                        "totalNetAmount": {
                                                            "$ref": "../../../Common/V1/BasicComponents.json#/properties/amountType"
                                                        }
                                                    }
                                                }
                                            }
                                        }
                                    }
                                }
                            }
                        ]
                    }
                },
                "salesOrder": {
                    "allOf": [
                        {
                            "$ref": "../../../Common/V1/CommonComponents.json#/properties/baseComponentType"
                        },
                        {
                            "properties": {
                                "payment": {
                                    "type": "object",
                                    "description": " ",
                                    "properties": {
                                        "amount": {
                                            "$ref": "../../../Common/V1/BasicComponents.json#/properties/amountType"
                                        },
                                        "paymentMethod": {
                                            "type": "string",
                                            "description": "The Payment Method used "
                                        }
                                    }
                                },
                                "price": {
                                    "type": "array",
                                    "description": "The Price associated with the Shipping Order. ",
                                    "minItems": 0,
                                    "items": {
                                        "type": "object",
                                        "properties": {
                                            "type": {
                                                "type": "string",
                                                "description": "The type of line item charges."
                                            },
                                            "taxAmount": {
                                                "$ref": "../../../Common/V1/BasicComponents.json#/properties/amountType"
                                            },
                                            "netAmount": {
                                                "$ref": "../../../Common/V1/BasicComponents.json#/properties/amountType"
                                            },
                                            "totalAmount": {
                                                "$ref": "../../../Common/V1/BasicComponents.json#/properties/amountType"
                                            }
                                        }
                                    }
                                },
                                "_links": {
                                    "type": "array",
                                    "items": {
                                        "$ref": "../../../Common/V1/Links.json#/properties/_links"
                                    }
                                }
                            }
                        }
                    ]
                },
                "channel": {
                    "allOf": [
                        {
                            "$ref": "../../../Common/V1/CommonComponents.json#/properties/baseComponentType"
                        },
                        {
                            "properties": {
                                "_links": {
                                    "type": "array",
                                    "items": {
                                        "$ref": "../../../Common/V1/Links.json#/properties/_links"
                                    }
                                }
                            }
                        }
                    ]
                },
                "customerAccount": {
                    "allOf": [
                        {
                            "$ref": "../../../Common/V1/CommonComponents.json#/properties/baseComponentType"
                        },
                        {
                            "properties": {
                                "_links": {
                                    "type": "array",
                                    "items": {
                                        "$ref": "../../../Common/V1/Links.json#/properties/_links"
                                    }
                                }
                            }
                        }
                    ]
                },
                "specification": {
                    "type": "object",
                    "description": " ",
                    "allOf": [
                        {
                            "$ref": "../../../Common/V1/CommonComponents.json#/properties/specificationType"
                        },
                        {
                            "properties": {
                                "_links": {
                                    "type": "array",
                                    "items": {
                                        "$ref": "../../../Common/V1/Links.json#/properties/_links"
                                    }
                                }
                            }
                        }
                    ]
                }
            }
        }
    }
}
