 ,Path, Type, Core Data Type, XSD Type, XSD Cardinality,	Validation Rule, Sample Data, Description
 ,/SubscriptionProfileVBO ,Business Object, ,Object,1..1, , ,The Subscription Profile service is an entity service that provides the capabilities necessary to 
				manage a subscriber’s Content Access Profile from creation to deletion.
 ,/SubscriptionProfileVBO/IDs,Collection, ,xsd:string,0..1, ,,The set of Identifiers for the VBO or component. These should be used to uniquely identifier instances of the business object or component.
 ,/SubscriptionProfileVBO/IDs/ID,Field,Identifier. Type,xsd:string,0..*, ,'123',The identifier of the business object or component. This should be used to identify instances of a business object or component. Where the component is being used to reference another business object then this is the primary key of the target object. Use the attributes @schemeName and @schemeAgencyName to identify type of Identifier.
 ,/SubscriptionProfileVBO/IDs/ID/schemeID,Attribute,Identifier. Type,xsd:token,0..1, ,'Vodafone',Identification Scheme. Identifier
 ,/SubscriptionProfileVBO/IDs/ID/schemeName,Attribute,Text. Type,xsd:string,0..1, ,'Vodafone',Identification Scheme. Name. Text
 ,/SubscriptionProfileVBO/IDs/ID/schemeAgencyID,Attribute,Identifier. Type,xsd:token,0..1, ,'123',Identification Scheme. Agency. Identifier
 ,/SubscriptionProfileVBO/IDs/ID/schemeAgencyName,Attribute,Text. Type,xsd:string,0..1, ,,Identification Scheme. Agency Name. Text
 ,/SubscriptionProfileVBO/IDs/ID/schemeVersionID,Attribute,Identifier. Type,xsd:token,0..1, ,'123',Identification Scheme. Version. Identifier
 ,/SubscriptionProfileVBO/IDs/ID/schemeDataURI,Attribute, ,xsd:anyURI,0..1, ,,Identification Scheme Data. Uniform Resource. Identifier
 ,/SubscriptionProfileVBO/IDs/ID/schemeURI,Attribute, ,xsd:anyURI,0..1, ,,Identification Scheme. Uniform Resource. Identifier
 ,/SubscriptionProfileVBO/Name,Field,Text. Type,xsd:string,0..1, ,,The name of the instance of a business object or component.
 ,/SubscriptionProfileVBO/Name/languageID,Attribute,Identifier. Type,xsd:language,0..1, ,'123',Language. Identifier
 ,/SubscriptionProfileVBO/Name/languageLocaleID,Attribute,Identifier. Type,xsd:token,0..1, ,'123',Language Locale. Identifier
 ,/SubscriptionProfileVBO/Desc,Field,Text. Type,xsd:string,0..1, ,,A free text description of a business object or component.
 ,/SubscriptionProfileVBO/Desc/languageID,Attribute,Identifier. Type,xsd:language,0..1, ,'123',Language. Identifier
 ,/SubscriptionProfileVBO/Desc/languageLocaleID,Attribute,Identifier. Type,xsd:token,0..1, ,'123',Language Locale. Identifier
 ,/SubscriptionProfileVBO/actionCode,Field,Code. Type,xsd:CodeType,0..1, ,'token',The @actionCode attribute is used within a modification operation to indicate the action (add  update  delete) intended on a component.
 ,/SubscriptionProfileVBO/Type,Field, ,xsd:string,0..1, ,,A classification of the business object or component. This identifies the sub-type of the instance of object or component.
 ,/SubscriptionProfileVBO/Type/listID,Attribute,Identifier. Type,xsd:token,0..1, ,'123',Code List. Identifier
 ,/SubscriptionProfileVBO/Type/listAgencyID,Attribute,Identifier. Type,xsd:token,0..1, ,'123',Code List. Agency. Identifier
 ,/SubscriptionProfileVBO/Type/listAgencyName,Attribute,Text. Type,xsd:string,0..1, ,,Code List. Agency Name. Text
 ,/SubscriptionProfileVBO/Type/listName,Attribute,Text. Type,xsd:string,0..1, ,,Code List. Name. Text
 ,/SubscriptionProfileVBO/Type/listVersionID,Attribute,Identifier. Type,xsd:token,0..1, ,'123',Code List. Version. Identifier
 ,/SubscriptionProfileVBO/Type/name,Attribute,Text. Type,xsd:string,0..1, ,,Code. Name. Text
 ,/SubscriptionProfileVBO/Type/languageID,Attribute,Identifier. Type,xsd:language,0..1, ,'123',Language. Identifier
 ,/SubscriptionProfileVBO/Type/listURI,Attribute, ,xsd:anyURI,0..1, ,,Code List. Uniform Resource. Identifier
 ,/SubscriptionProfileVBO/Type/listSchemeURI,Attribute, ,xsd:anyURI,0..1, ,,Code List Scheme. Uniform Resource. Identifier
 ,/SubscriptionProfileVBO/Categories,Collection, ,xsd:string,0..1, ,,The set of classifications for the business object or component.
 ,/SubscriptionProfileVBO/Categories/Category,Collection, ,xsd:string,0..*, ,,A classification applied to the business object or component. More than one classification scheme can be applied using the @listName attribute to identify the type of code list being used. The classification scheme can be used to group instances of the object or component.
 ,/SubscriptionProfileVBO/Categories/Category/listID,Attribute,Identifier. Type,xsd:token,0..1, ,'123',Code List. Identifier
 ,/SubscriptionProfileVBO/Categories/Category/listAgencyID,Attribute,Identifier. Type,xsd:token,0..1, ,'123',Code List. Agency. Identifier
 ,/SubscriptionProfileVBO/Categories/Category/listAgencyName,Attribute,Text. Type,xsd:string,0..1, ,,Code List. Agency Name. Text
 ,/SubscriptionProfileVBO/Categories/Category/listName,Attribute,Text. Type,xsd:string,0..1, ,,Code List. Name. Text
 ,/SubscriptionProfileVBO/Categories/Category/listVersionID,Attribute,Identifier. Type,xsd:token,0..1, ,'123',Code List. Version. Identifier
 ,/SubscriptionProfileVBO/Categories/Category/name,Attribute,Text. Type,xsd:string,0..1, ,,Code. Name. Text
 ,/SubscriptionProfileVBO/Categories/Category/languageID,Attribute,Identifier. Type,xsd:language,0..1, ,'123',Language. Identifier
 ,/SubscriptionProfileVBO/Categories/Category/listURI,Attribute, ,xsd:anyURI,0..1, ,,Code List. Uniform Resource. Identifier
 ,/SubscriptionProfileVBO/Categories/Category/listSchemeURI,Attribute, ,xsd:anyURI,0..1, ,,Code List Scheme. Uniform Resource. Identifier
 ,/SubscriptionProfileVBO/Categories/Category/listHierarchyID,Attribute,Identifier. Type,xsd:string,0..1, ,'123',An indication of the hierarchy level of the category when involved in a hierarchical classification  e.g. level 1 -> Category/@listHierarchyID=1  level 2 -> Category/@listHierarchyID=2. In this case the listName should be the same for each level to show their relationship.
 ,/SubscriptionProfileVBO/Status,Field,Code. Type,xsd:CodeType,0..1, ,'token',The lifecycle state of the business object or component. This field is used to track the specific state an instance of an object or component is in  e.g. the Customer Bill is Active or the Customer Request has been Cancelled.
 ,/SubscriptionProfileVBO/Status/listID,Attribute,Identifier. Type,xsd:token,0..1, ,'123',Code List. Identifier
 ,/SubscriptionProfileVBO/Status/listAgencyID,Attribute,Identifier. Type,xsd:token,0..1, ,'123',Code List. Agency. Identifier
 ,/SubscriptionProfileVBO/Status/listAgencyName,Attribute,Text. Type,xsd:string,0..1, ,,Code List. Agency Name. Text
 ,/SubscriptionProfileVBO/Status/listName,Attribute,Text. Type,xsd:string,0..1, ,,Code List. Name. Text
 ,/SubscriptionProfileVBO/Status/listVersionID,Attribute,Identifier. Type,xsd:token,0..1, ,'123',Code List. Version. Identifier
 ,/SubscriptionProfileVBO/Status/name,Attribute,Text. Type,xsd:string,0..1, ,,Code. Name. Text
 ,/SubscriptionProfileVBO/Status/languageID,Attribute,Identifier. Type,xsd:language,0..1, ,'123',Language. Identifier
 ,/SubscriptionProfileVBO/Status/listURI,Attribute, ,xsd:anyURI,0..1, ,,Code List. Uniform Resource. Identifier
 ,/SubscriptionProfileVBO/Status/listSchemeURI,Attribute, ,xsd:anyURI,0..1, ,,Code List Scheme. Uniform Resource. Identifier
 ,/SubscriptionProfileVBO/Version,Field,Text. Type,xsd:string,0..1, ,,A field that identifies the specific version of an instance of a business object or component. This field should be used in support of multi-agent environments to control the concurrency (locking) of the instance.
 ,/SubscriptionProfileVBO/Version/languageID,Attribute,Identifier. Type,xsd:language,0..1, ,'123',Language. Identifier
 ,/SubscriptionProfileVBO/Version/languageLocaleID,Attribute,Identifier. Type,xsd:token,0..1, ,'123',Language Locale. Identifier
 ,/SubscriptionProfileVBO/Created,Field, ,xsd:string,0..1, ,,The date and time the business object or component was created. A date and time formatted in compliance with the ISO8601 standard must be used.
 ,/SubscriptionProfileVBO/Created/format,Attribute, ,xsd:string,0..1, ,,Date Time. Format. Text
 ,/SubscriptionProfileVBO/CreatedBy,Field, ,xsd:string,0..1, ,,The unique ID of the User that created the instance of the business object or component. This should be used as a reference to the IDM system and the details about that User.
 ,/SubscriptionProfileVBO/CreatedBy/schemeID,Attribute,Identifier. Type,xsd:token,0..1, ,'Vodafone',Identification Scheme. Identifier
 ,/SubscriptionProfileVBO/CreatedBy/schemeName,Attribute,Text. Type,xsd:string,0..1, ,'Vodafone',Identification Scheme. Name. Text
 ,/SubscriptionProfileVBO/CreatedBy/schemeAgencyID,Attribute,Identifier. Type,xsd:token,0..1, ,'123',Identification Scheme. Agency. Identifier
 ,/SubscriptionProfileVBO/CreatedBy/schemeAgencyName,Attribute,Text. Type,xsd:string,0..1, ,,Identification Scheme. Agency Name. Text
 ,/SubscriptionProfileVBO/CreatedBy/schemeVersionID,Attribute,Identifier. Type,xsd:token,0..1, ,'123',Identification Scheme. Version. Identifier
 ,/SubscriptionProfileVBO/CreatedBy/schemeDataURI,Attribute, ,xsd:anyURI,0..1, ,,Identification Scheme Data. Uniform Resource. Identifier
 ,/SubscriptionProfileVBO/CreatedBy/schemeURI,Attribute, ,xsd:anyURI,0..1, ,,Identification Scheme. Uniform Resource. Identifier
 ,/SubscriptionProfileVBO/LastModified,Field, ,xsd:string,0..1, ,,The date and time the business object or component was last modified. A date and time formatted in compliance with the ISO8601 standard must be used.
 ,/SubscriptionProfileVBO/LastModified/format,Attribute, ,xsd:string,0..1, ,,Date Time. Format. Text
 ,/SubscriptionProfileVBO/LastModifiedBy,Field, ,xsd:string,0..1, ,,The unique ID of the User that last modified the instance of the business object or component. This should be used as a reference to the IDM system and the details about that User.
 ,/SubscriptionProfileVBO/LastModifiedBy/schemeID,Attribute,Identifier. Type,xsd:token,0..1, ,'Vodafone',Identification Scheme. Identifier
 ,/SubscriptionProfileVBO/LastModifiedBy/schemeName,Attribute,Text. Type,xsd:string,0..1, ,'Vodafone',Identification Scheme. Name. Text
 ,/SubscriptionProfileVBO/LastModifiedBy/schemeAgencyID,Attribute,Identifier. Type,xsd:token,0..1, ,'123',Identification Scheme. Agency. Identifier
 ,/SubscriptionProfileVBO/LastModifiedBy/schemeAgencyName,Attribute,Text. Type,xsd:string,0..1, ,,Identification Scheme. Agency Name. Text
 ,/SubscriptionProfileVBO/LastModifiedBy/schemeVersionID,Attribute,Identifier. Type,xsd:token,0..1, ,'123',Identification Scheme. Version. Identifier
 ,/SubscriptionProfileVBO/LastModifiedBy/schemeDataURI,Attribute, ,xsd:anyURI,0..1, ,,Identification Scheme Data. Uniform Resource. Identifier
 ,/SubscriptionProfileVBO/LastModifiedBy/schemeURI,Attribute, ,xsd:anyURI,0..1, ,,Identification Scheme. Uniform Resource. Identifier
 ,/SubscriptionProfileVBO/ValidityPeriod,Field, ,xsd:string,0..1, ,,A component that states the date and time from which this business object is effective (or valid) and the date and time to which it is effective. Again the ISO8601 standard must be used.
 ,/SubscriptionProfileVBO/ValidityPeriod/FromDate,Field,Date. Type,xsd:date,0..1, ,'2018-05-06',The date from which the business object or component is effective.
 ,/SubscriptionProfileVBO/ValidityPeriod/FromDate/[xsd:choice]/DateString,Collection,DateTime. Type,xsd:string,0..1,ISO8601,'2018-05-06',
 ,/SubscriptionProfileVBO/ValidityPeriod/FromDate/[xsd:choice]/DateString/format,Attribute, ,xsd:string,0..1, ,,
 ,/SubscriptionProfileVBO/ValidityPeriod/FromDate/[xsd:choice]/Date,Attribute,Date. Type,xsd:date,0..1, ,'2018-05-06',
 ,/SubscriptionProfileVBO/ValidityPeriod/ToDate,Field,Date. Type,xsd:date,0..1, ,'2018-05-06',The date to which the business object or component is effective.
 ,/SubscriptionProfileVBO/ValidityPeriod/ToDate/[xsd:choice]/DateString,Collection,DateTime. Type,xsd:string,0..1,ISO8601,'2018-05-06',
 ,/SubscriptionProfileVBO/ValidityPeriod/ToDate/[xsd:choice]/DateString/format,Attribute, ,xsd:string,0..1, ,,
 ,/SubscriptionProfileVBO/ValidityPeriod/ToDate/[xsd:choice]/Date,Attribute,Date. Type,xsd:date,0..1, ,'2018-05-06',
 ,/SubscriptionProfileVBO/LastActivityDate,Field,Date. Type,xsd:date,0..1, ,'2018-05-06',A field representing the date and time on which business activity was last made on this business object or component. The date and time must conform to the ISO8601 standard.
 ,/SubscriptionProfileVBO/LastActivityDate/format,Attribute, ,xsd:string,0..1, ,,Date Time. Format. Text
 ,/SubscriptionProfileVBO/Roles,Field, ,xsd:string,0..1, ,,
 ,/SubscriptionProfileVBO/Roles/Requestor,Field, ,xsd:string,0..1, ,,
 ,/SubscriptionProfileVBO/Roles/Requestor/IDs,Collection, ,xsd:string,0..1, ,,The set of Identifiers for the VBO or component. These should be used to uniquely identifier instances of the business object or component.
 ,/SubscriptionProfileVBO/Roles/Requestor/IDs/ID,Field,Identifier. Type,xsd:string,0..*, ,'123',The identifier of the business object or component. This should be used to identify instances of a business object or component. Where the component is being used to reference another business object then this is the primary key of the target object. Use the attributes @schemeName and @schemeAgencyName to identify type of Identifier.
 ,/SubscriptionProfileVBO/Roles/Requestor/IDs/ID/schemeID,Attribute,Identifier. Type,xsd:token,0..1, ,'Vodafone',Identification Scheme. Identifier
 ,/SubscriptionProfileVBO/Roles/Requestor/IDs/ID/schemeName,Attribute,Text. Type,xsd:string,0..1, ,'Vodafone',Identification Scheme. Name. Text
 ,/SubscriptionProfileVBO/Roles/Requestor/IDs/ID/schemeAgencyID,Attribute,Identifier. Type,xsd:token,0..1, ,'123',Identification Scheme. Agency. Identifier
 ,/SubscriptionProfileVBO/Roles/Requestor/IDs/ID/schemeAgencyName,Attribute,Text. Type,xsd:string,0..1, ,,Identification Scheme. Agency Name. Text
 ,/SubscriptionProfileVBO/Roles/Requestor/IDs/ID/schemeVersionID,Attribute,Identifier. Type,xsd:token,0..1, ,'123',Identification Scheme. Version. Identifier
 ,/SubscriptionProfileVBO/Roles/Requestor/IDs/ID/schemeDataURI,Attribute, ,xsd:anyURI,0..1, ,,Identification Scheme Data. Uniform Resource. Identifier
 ,/SubscriptionProfileVBO/Roles/Requestor/IDs/ID/schemeURI,Attribute, ,xsd:anyURI,0..1, ,,Identification Scheme. Uniform Resource. Identifier
 ,/SubscriptionProfileVBO/Roles/Requestor/Name,Field,Text. Type,xsd:string,0..1, ,,The name of the instance of a business object or component.
 ,/SubscriptionProfileVBO/Roles/Requestor/Name/languageID,Attribute,Identifier. Type,xsd:language,0..1, ,'123',Language. Identifier
 ,/SubscriptionProfileVBO/Roles/Requestor/Name/languageLocaleID,Attribute,Identifier. Type,xsd:token,0..1, ,'123',Language Locale. Identifier
 ,/SubscriptionProfileVBO/Roles/Requestor/Desc,Field,Text. Type,xsd:string,0..1, ,,A free text description of a business object or component.
 ,/SubscriptionProfileVBO/Roles/Requestor/Desc/languageID,Attribute,Identifier. Type,xsd:language,0..1, ,'123',Language. Identifier
 ,/SubscriptionProfileVBO/Roles/Requestor/Desc/languageLocaleID,Attribute,Identifier. Type,xsd:token,0..1, ,'123',Language Locale. Identifier
 ,/SubscriptionProfileVBO/Roles/Requestor/actionCode,Field,Code. Type,xsd:CodeType,0..1, ,'token',The @actionCode attribute is used within a modification operation to indicate the action (add  update  delete) intended on a component.
 ,/SubscriptionProfileVBO/Roles/Requestor/Type,Field, ,xsd:string,0..1, ,,A classification of the business object or component. This identifies the sub-type of the instance of object or component.
 ,/SubscriptionProfileVBO/Roles/Requestor/Type/listID,Attribute,Identifier. Type,xsd:token,0..1, ,'123',Code List. Identifier
 ,/SubscriptionProfileVBO/Roles/Requestor/Type/listAgencyID,Attribute,Identifier. Type,xsd:token,0..1, ,'123',Code List. Agency. Identifier
 ,/SubscriptionProfileVBO/Roles/Requestor/Type/listAgencyName,Attribute,Text. Type,xsd:string,0..1, ,,Code List. Agency Name. Text
 ,/SubscriptionProfileVBO/Roles/Requestor/Type/listName,Attribute,Text. Type,xsd:string,0..1, ,,Code List. Name. Text
 ,/SubscriptionProfileVBO/Roles/Requestor/Type/listVersionID,Attribute,Identifier. Type,xsd:token,0..1, ,'123',Code List. Version. Identifier
 ,/SubscriptionProfileVBO/Roles/Requestor/Type/name,Attribute,Text. Type,xsd:string,0..1, ,,Code. Name. Text
 ,/SubscriptionProfileVBO/Roles/Requestor/Type/languageID,Attribute,Identifier. Type,xsd:language,0..1, ,'123',Language. Identifier
 ,/SubscriptionProfileVBO/Roles/Requestor/Type/listURI,Attribute, ,xsd:anyURI,0..1, ,,Code List. Uniform Resource. Identifier
 ,/SubscriptionProfileVBO/Roles/Requestor/Type/listSchemeURI,Attribute, ,xsd:anyURI,0..1, ,,Code List Scheme. Uniform Resource. Identifier
 ,/SubscriptionProfileVBO/Roles/Requestor/Categories,Collection, ,xsd:string,0..1, ,,The set of classifications for the business object or component.
 ,/SubscriptionProfileVBO/Roles/Requestor/Categories/Category,Collection, ,xsd:string,0..*, ,,A classification applied to the business object or component. More than one classification scheme can be applied using the @listName attribute to identify the type of code list being used. The classification scheme can be used to group instances of the object or component.
 ,/SubscriptionProfileVBO/Roles/Requestor/Categories/Category/listID,Attribute,Identifier. Type,xsd:token,0..1, ,'123',Code List. Identifier
 ,/SubscriptionProfileVBO/Roles/Requestor/Categories/Category/listAgencyID,Attribute,Identifier. Type,xsd:token,0..1, ,'123',Code List. Agency. Identifier
 ,/SubscriptionProfileVBO/Roles/Requestor/Categories/Category/listAgencyName,Attribute,Text. Type,xsd:string,0..1, ,,Code List. Agency Name. Text
 ,/SubscriptionProfileVBO/Roles/Requestor/Categories/Category/listName,Attribute,Text. Type,xsd:string,0..1, ,,Code List. Name. Text
 ,/SubscriptionProfileVBO/Roles/Requestor/Categories/Category/listVersionID,Attribute,Identifier. Type,xsd:token,0..1, ,'123',Code List. Version. Identifier
 ,/SubscriptionProfileVBO/Roles/Requestor/Categories/Category/name,Attribute,Text. Type,xsd:string,0..1, ,,Code. Name. Text
 ,/SubscriptionProfileVBO/Roles/Requestor/Categories/Category/languageID,Attribute,Identifier. Type,xsd:language,0..1, ,'123',Language. Identifier
 ,/SubscriptionProfileVBO/Roles/Requestor/Categories/Category/listURI,Attribute, ,xsd:anyURI,0..1, ,,Code List. Uniform Resource. Identifier
 ,/SubscriptionProfileVBO/Roles/Requestor/Categories/Category/listSchemeURI,Attribute, ,xsd:anyURI,0..1, ,,Code List Scheme. Uniform Resource. Identifier
 ,/SubscriptionProfileVBO/Roles/Requestor/Categories/Category/listHierarchyID,Attribute,Identifier. Type,xsd:string,0..1, ,'123',An indication of the hierarchy level of the category when involved in a hierarchical classification  e.g. level 1 -> Category/@listHierarchyID=1  level 2 -> Category/@listHierarchyID=2. In this case the listName should be the same for each level to show their relationship.
 ,/SubscriptionProfileVBO/Roles/Requestor/Status,Field,Code. Type,xsd:CodeType,0..1, ,'token',The lifecycle state of the business object or component. This field is used to track the specific state an instance of an object or component is in  e.g. the Customer Bill is Active or the Customer Request has been Cancelled.
 ,/SubscriptionProfileVBO/Roles/Requestor/Status/listID,Attribute,Identifier. Type,xsd:token,0..1, ,'123',Code List. Identifier
 ,/SubscriptionProfileVBO/Roles/Requestor/Status/listAgencyID,Attribute,Identifier. Type,xsd:token,0..1, ,'123',Code List. Agency. Identifier
 ,/SubscriptionProfileVBO/Roles/Requestor/Status/listAgencyName,Attribute,Text. Type,xsd:string,0..1, ,,Code List. Agency Name. Text
 ,/SubscriptionProfileVBO/Roles/Requestor/Status/listName,Attribute,Text. Type,xsd:string,0..1, ,,Code List. Name. Text
 ,/SubscriptionProfileVBO/Roles/Requestor/Status/listVersionID,Attribute,Identifier. Type,xsd:token,0..1, ,'123',Code List. Version. Identifier
 ,/SubscriptionProfileVBO/Roles/Requestor/Status/name,Attribute,Text. Type,xsd:string,0..1, ,,Code. Name. Text
 ,/SubscriptionProfileVBO/Roles/Requestor/Status/languageID,Attribute,Identifier. Type,xsd:language,0..1, ,'123',Language. Identifier
 ,/SubscriptionProfileVBO/Roles/Requestor/Status/listURI,Attribute, ,xsd:anyURI,0..1, ,,Code List. Uniform Resource. Identifier
 ,/SubscriptionProfileVBO/Roles/Requestor/Status/listSchemeURI,Attribute, ,xsd:anyURI,0..1, ,,Code List Scheme. Uniform Resource. Identifier
 ,/SubscriptionProfileVBO/Roles/Requestor/Extension,Field, ,xsd:string,0..1, ,,
 ,/SubscriptionProfileVBO/Roles/Initiator,Field, ,xsd:string,0..1, ,,
 ,/SubscriptionProfileVBO/Roles/Initiator/IDs,Collection, ,xsd:string,0..1, ,,The set of Identifiers for the VBO or component. These should be used to uniquely identifier instances of the business object or component.
 ,/SubscriptionProfileVBO/Roles/Initiator/IDs/ID,Field,Identifier. Type,xsd:string,0..*, ,'123',The identifier of the business object or component. This should be used to identify instances of a business object or component. Where the component is being used to reference another business object then this is the primary key of the target object. Use the attributes @schemeName and @schemeAgencyName to identify type of Identifier.
 ,/SubscriptionProfileVBO/Roles/Initiator/IDs/ID/schemeID,Attribute,Identifier. Type,xsd:token,0..1, ,'Vodafone',Identification Scheme. Identifier
 ,/SubscriptionProfileVBO/Roles/Initiator/IDs/ID/schemeName,Attribute,Text. Type,xsd:string,0..1, ,'Vodafone',Identification Scheme. Name. Text
 ,/SubscriptionProfileVBO/Roles/Initiator/IDs/ID/schemeAgencyID,Attribute,Identifier. Type,xsd:token,0..1, ,'123',Identification Scheme. Agency. Identifier
 ,/SubscriptionProfileVBO/Roles/Initiator/IDs/ID/schemeAgencyName,Attribute,Text. Type,xsd:string,0..1, ,,Identification Scheme. Agency Name. Text
 ,/SubscriptionProfileVBO/Roles/Initiator/IDs/ID/schemeVersionID,Attribute,Identifier. Type,xsd:token,0..1, ,'123',Identification Scheme. Version. Identifier
 ,/SubscriptionProfileVBO/Roles/Initiator/IDs/ID/schemeDataURI,Attribute, ,xsd:anyURI,0..1, ,,Identification Scheme Data. Uniform Resource. Identifier
 ,/SubscriptionProfileVBO/Roles/Initiator/IDs/ID/schemeURI,Attribute, ,xsd:anyURI,0..1, ,,Identification Scheme. Uniform Resource. Identifier
 ,/SubscriptionProfileVBO/Roles/Initiator/Name,Field,Text. Type,xsd:string,0..1, ,,The name of the instance of a business object or component.
 ,/SubscriptionProfileVBO/Roles/Initiator/Name/languageID,Attribute,Identifier. Type,xsd:language,0..1, ,'123',Language. Identifier
 ,/SubscriptionProfileVBO/Roles/Initiator/Name/languageLocaleID,Attribute,Identifier. Type,xsd:token,0..1, ,'123',Language Locale. Identifier
 ,/SubscriptionProfileVBO/Roles/Initiator/Desc,Field,Text. Type,xsd:string,0..1, ,,A free text description of a business object or component.
 ,/SubscriptionProfileVBO/Roles/Initiator/Desc/languageID,Attribute,Identifier. Type,xsd:language,0..1, ,'123',Language. Identifier
 ,/SubscriptionProfileVBO/Roles/Initiator/Desc/languageLocaleID,Attribute,Identifier. Type,xsd:token,0..1, ,'123',Language Locale. Identifier
 ,/SubscriptionProfileVBO/Roles/Initiator/actionCode,Field,Code. Type,xsd:CodeType,0..1, ,'token',The @actionCode attribute is used within a modification operation to indicate the action (add  update  delete) intended on a component.
 ,/SubscriptionProfileVBO/Roles/Initiator/Type,Field, ,xsd:string,0..1, ,,A classification of the business object or component. This identifies the sub-type of the instance of object or component.
 ,/SubscriptionProfileVBO/Roles/Initiator/Type/listID,Attribute,Identifier. Type,xsd:token,0..1, ,'123',Code List. Identifier
 ,/SubscriptionProfileVBO/Roles/Initiator/Type/listAgencyID,Attribute,Identifier. Type,xsd:token,0..1, ,'123',Code List. Agency. Identifier
 ,/SubscriptionProfileVBO/Roles/Initiator/Type/listAgencyName,Attribute,Text. Type,xsd:string,0..1, ,,Code List. Agency Name. Text
 ,/SubscriptionProfileVBO/Roles/Initiator/Type/listName,Attribute,Text. Type,xsd:string,0..1, ,,Code List. Name. Text
 ,/SubscriptionProfileVBO/Roles/Initiator/Type/listVersionID,Attribute,Identifier. Type,xsd:token,0..1, ,'123',Code List. Version. Identifier
 ,/SubscriptionProfileVBO/Roles/Initiator/Type/name,Attribute,Text. Type,xsd:string,0..1, ,,Code. Name. Text
 ,/SubscriptionProfileVBO/Roles/Initiator/Type/languageID,Attribute,Identifier. Type,xsd:language,0..1, ,'123',Language. Identifier
 ,/SubscriptionProfileVBO/Roles/Initiator/Type/listURI,Attribute, ,xsd:anyURI,0..1, ,,Code List. Uniform Resource. Identifier
 ,/SubscriptionProfileVBO/Roles/Initiator/Type/listSchemeURI,Attribute, ,xsd:anyURI,0..1, ,,Code List Scheme. Uniform Resource. Identifier
 ,/SubscriptionProfileVBO/Roles/Initiator/Categories,Collection, ,xsd:string,0..1, ,,The set of classifications for the business object or component.
 ,/SubscriptionProfileVBO/Roles/Initiator/Categories/Category,Collection, ,xsd:string,0..*, ,,A classification applied to the business object or component. More than one classification scheme can be applied using the @listName attribute to identify the type of code list being used. The classification scheme can be used to group instances of the object or component.
 ,/SubscriptionProfileVBO/Roles/Initiator/Categories/Category/listID,Attribute,Identifier. Type,xsd:token,0..1, ,'123',Code List. Identifier
 ,/SubscriptionProfileVBO/Roles/Initiator/Categories/Category/listAgencyID,Attribute,Identifier. Type,xsd:token,0..1, ,'123',Code List. Agency. Identifier
 ,/SubscriptionProfileVBO/Roles/Initiator/Categories/Category/listAgencyName,Attribute,Text. Type,xsd:string,0..1, ,,Code List. Agency Name. Text
 ,/SubscriptionProfileVBO/Roles/Initiator/Categories/Category/listName,Attribute,Text. Type,xsd:string,0..1, ,,Code List. Name. Text
 ,/SubscriptionProfileVBO/Roles/Initiator/Categories/Category/listVersionID,Attribute,Identifier. Type,xsd:token,0..1, ,'123',Code List. Version. Identifier
 ,/SubscriptionProfileVBO/Roles/Initiator/Categories/Category/name,Attribute,Text. Type,xsd:string,0..1, ,,Code. Name. Text
 ,/SubscriptionProfileVBO/Roles/Initiator/Categories/Category/languageID,Attribute,Identifier. Type,xsd:language,0..1, ,'123',Language. Identifier
 ,/SubscriptionProfileVBO/Roles/Initiator/Categories/Category/listURI,Attribute, ,xsd:anyURI,0..1, ,,Code List. Uniform Resource. Identifier
 ,/SubscriptionProfileVBO/Roles/Initiator/Categories/Category/listSchemeURI,Attribute, ,xsd:anyURI,0..1, ,,Code List Scheme. Uniform Resource. Identifier
 ,/SubscriptionProfileVBO/Roles/Initiator/Categories/Category/listHierarchyID,Attribute,Identifier. Type,xsd:string,0..1, ,'123',An indication of the hierarchy level of the category when involved in a hierarchical classification  e.g. level 1 -> Category/@listHierarchyID=1  level 2 -> Category/@listHierarchyID=2. In this case the listName should be the same for each level to show their relationship.
 ,/SubscriptionProfileVBO/Roles/Initiator/Status,Field,Code. Type,xsd:CodeType,0..1, ,'token',The lifecycle state of the business object or component. This field is used to track the specific state an instance of an object or component is in  e.g. the Customer Bill is Active or the Customer Request has been Cancelled.
 ,/SubscriptionProfileVBO/Roles/Initiator/Status/listID,Attribute,Identifier. Type,xsd:token,0..1, ,'123',Code List. Identifier
 ,/SubscriptionProfileVBO/Roles/Initiator/Status/listAgencyID,Attribute,Identifier. Type,xsd:token,0..1, ,'123',Code List. Agency. Identifier
 ,/SubscriptionProfileVBO/Roles/Initiator/Status/listAgencyName,Attribute,Text. Type,xsd:string,0..1, ,,Code List. Agency Name. Text
 ,/SubscriptionProfileVBO/Roles/Initiator/Status/listName,Attribute,Text. Type,xsd:string,0..1, ,,Code List. Name. Text
 ,/SubscriptionProfileVBO/Roles/Initiator/Status/listVersionID,Attribute,Identifier. Type,xsd:token,0..1, ,'123',Code List. Version. Identifier
 ,/SubscriptionProfileVBO/Roles/Initiator/Status/name,Attribute,Text. Type,xsd:string,0..1, ,,Code. Name. Text
 ,/SubscriptionProfileVBO/Roles/Initiator/Status/languageID,Attribute,Identifier. Type,xsd:language,0..1, ,'123',Language. Identifier
 ,/SubscriptionProfileVBO/Roles/Initiator/Status/listURI,Attribute, ,xsd:anyURI,0..1, ,,Code List. Uniform Resource. Identifier
 ,/SubscriptionProfileVBO/Roles/Initiator/Status/listSchemeURI,Attribute, ,xsd:anyURI,0..1, ,,Code List Scheme. Uniform Resource. Identifier
 ,/SubscriptionProfileVBO/Roles/Initiator/Extension,Field, ,xsd:string,0..1, ,,
 ,/SubscriptionProfileVBO/Roles/Guardian,Field, ,xsd:string,0..1, ,,
 ,/SubscriptionProfileVBO/Roles/Guardian/IDs,Collection, ,xsd:string,0..1, ,,The set of Identifiers for the VBO or component. These should be used to uniquely identifier instances of the business object or component.
 ,/SubscriptionProfileVBO/Roles/Guardian/IDs/ID,Field,Identifier. Type,xsd:string,0..*, ,'123',The identifier of the business object or component. This should be used to identify instances of a business object or component. Where the component is being used to reference another business object then this is the primary key of the target object. Use the attributes @schemeName and @schemeAgencyName to identify type of Identifier.
 ,/SubscriptionProfileVBO/Roles/Guardian/IDs/ID/schemeID,Attribute,Identifier. Type,xsd:token,0..1, ,'Vodafone',Identification Scheme. Identifier
 ,/SubscriptionProfileVBO/Roles/Guardian/IDs/ID/schemeName,Attribute,Text. Type,xsd:string,0..1, ,'Vodafone',Identification Scheme. Name. Text
 ,/SubscriptionProfileVBO/Roles/Guardian/IDs/ID/schemeAgencyID,Attribute,Identifier. Type,xsd:token,0..1, ,'123',Identification Scheme. Agency. Identifier
 ,/SubscriptionProfileVBO/Roles/Guardian/IDs/ID/schemeAgencyName,Attribute,Text. Type,xsd:string,0..1, ,,Identification Scheme. Agency Name. Text
 ,/SubscriptionProfileVBO/Roles/Guardian/IDs/ID/schemeVersionID,Attribute,Identifier. Type,xsd:token,0..1, ,'123',Identification Scheme. Version. Identifier
 ,/SubscriptionProfileVBO/Roles/Guardian/IDs/ID/schemeDataURI,Attribute, ,xsd:anyURI,0..1, ,,Identification Scheme Data. Uniform Resource. Identifier
 ,/SubscriptionProfileVBO/Roles/Guardian/IDs/ID/schemeURI,Attribute, ,xsd:anyURI,0..1, ,,Identification Scheme. Uniform Resource. Identifier
 ,/SubscriptionProfileVBO/Roles/Guardian/Name,Field,Text. Type,xsd:string,0..1, ,,The name of the instance of a business object or component.
 ,/SubscriptionProfileVBO/Roles/Guardian/Name/languageID,Attribute,Identifier. Type,xsd:language,0..1, ,'123',Language. Identifier
 ,/SubscriptionProfileVBO/Roles/Guardian/Name/languageLocaleID,Attribute,Identifier. Type,xsd:token,0..1, ,'123',Language Locale. Identifier
 ,/SubscriptionProfileVBO/Roles/Guardian/Desc,Field,Text. Type,xsd:string,0..1, ,,A free text description of a business object or component.
 ,/SubscriptionProfileVBO/Roles/Guardian/Desc/languageID,Attribute,Identifier. Type,xsd:language,0..1, ,'123',Language. Identifier
 ,/SubscriptionProfileVBO/Roles/Guardian/Desc/languageLocaleID,Attribute,Identifier. Type,xsd:token,0..1, ,'123',Language Locale. Identifier
 ,/SubscriptionProfileVBO/Roles/Guardian/actionCode,Field,Code. Type,xsd:CodeType,0..1, ,'token',The @actionCode attribute is used within a modification operation to indicate the action (add  update  delete) intended on a component.
 ,/SubscriptionProfileVBO/Roles/Guardian/Type,Field, ,xsd:string,0..1, ,,A classification of the business object or component. This identifies the sub-type of the instance of object or component.
 ,/SubscriptionProfileVBO/Roles/Guardian/Type/listID,Attribute,Identifier. Type,xsd:token,0..1, ,'123',Code List. Identifier
 ,/SubscriptionProfileVBO/Roles/Guardian/Type/listAgencyID,Attribute,Identifier. Type,xsd:token,0..1, ,'123',Code List. Agency. Identifier
 ,/SubscriptionProfileVBO/Roles/Guardian/Type/listAgencyName,Attribute,Text. Type,xsd:string,0..1, ,,Code List. Agency Name. Text
 ,/SubscriptionProfileVBO/Roles/Guardian/Type/listName,Attribute,Text. Type,xsd:string,0..1, ,,Code List. Name. Text
 ,/SubscriptionProfileVBO/Roles/Guardian/Type/listVersionID,Attribute,Identifier. Type,xsd:token,0..1, ,'123',Code List. Version. Identifier
 ,/SubscriptionProfileVBO/Roles/Guardian/Type/name,Attribute,Text. Type,xsd:string,0..1, ,,Code. Name. Text
 ,/SubscriptionProfileVBO/Roles/Guardian/Type/languageID,Attribute,Identifier. Type,xsd:language,0..1, ,'123',Language. Identifier
 ,/SubscriptionProfileVBO/Roles/Guardian/Type/listURI,Attribute, ,xsd:anyURI,0..1, ,,Code List. Uniform Resource. Identifier
 ,/SubscriptionProfileVBO/Roles/Guardian/Type/listSchemeURI,Attribute, ,xsd:anyURI,0..1, ,,Code List Scheme. Uniform Resource. Identifier
 ,/SubscriptionProfileVBO/Roles/Guardian/Categories,Collection, ,xsd:string,0..1, ,,The set of classifications for the business object or component.
 ,/SubscriptionProfileVBO/Roles/Guardian/Categories/Category,Collection, ,xsd:string,0..*, ,,A classification applied to the business object or component. More than one classification scheme can be applied using the @listName attribute to identify the type of code list being used. The classification scheme can be used to group instances of the object or component.
 ,/SubscriptionProfileVBO/Roles/Guardian/Categories/Category/listID,Attribute,Identifier. Type,xsd:token,0..1, ,'123',Code List. Identifier
 ,/SubscriptionProfileVBO/Roles/Guardian/Categories/Category/listAgencyID,Attribute,Identifier. Type,xsd:token,0..1, ,'123',Code List. Agency. Identifier
 ,/SubscriptionProfileVBO/Roles/Guardian/Categories/Category/listAgencyName,Attribute,Text. Type,xsd:string,0..1, ,,Code List. Agency Name. Text
 ,/SubscriptionProfileVBO/Roles/Guardian/Categories/Category/listName,Attribute,Text. Type,xsd:string,0..1, ,,Code List. Name. Text
 ,/SubscriptionProfileVBO/Roles/Guardian/Categories/Category/listVersionID,Attribute,Identifier. Type,xsd:token,0..1, ,'123',Code List. Version. Identifier
 ,/SubscriptionProfileVBO/Roles/Guardian/Categories/Category/name,Attribute,Text. Type,xsd:string,0..1, ,,Code. Name. Text
 ,/SubscriptionProfileVBO/Roles/Guardian/Categories/Category/languageID,Attribute,Identifier. Type,xsd:language,0..1, ,'123',Language. Identifier
 ,/SubscriptionProfileVBO/Roles/Guardian/Categories/Category/listURI,Attribute, ,xsd:anyURI,0..1, ,,Code List. Uniform Resource. Identifier
 ,/SubscriptionProfileVBO/Roles/Guardian/Categories/Category/listSchemeURI,Attribute, ,xsd:anyURI,0..1, ,,Code List Scheme. Uniform Resource. Identifier
 ,/SubscriptionProfileVBO/Roles/Guardian/Categories/Category/listHierarchyID,Attribute,Identifier. Type,xsd:string,0..1, ,'123',An indication of the hierarchy level of the category when involved in a hierarchical classification  e.g. level 1 -> Category/@listHierarchyID=1  level 2 -> Category/@listHierarchyID=2. In this case the listName should be the same for each level to show their relationship.
 ,/SubscriptionProfileVBO/Roles/Guardian/Status,Field,Code. Type,xsd:CodeType,0..1, ,'token',The lifecycle state of the business object or component. This field is used to track the specific state an instance of an object or component is in  e.g. the Customer Bill is Active or the Customer Request has been Cancelled.
 ,/SubscriptionProfileVBO/Roles/Guardian/Status/listID,Attribute,Identifier. Type,xsd:token,0..1, ,'123',Code List. Identifier
 ,/SubscriptionProfileVBO/Roles/Guardian/Status/listAgencyID,Attribute,Identifier. Type,xsd:token,0..1, ,'123',Code List. Agency. Identifier
 ,/SubscriptionProfileVBO/Roles/Guardian/Status/listAgencyName,Attribute,Text. Type,xsd:string,0..1, ,,Code List. Agency Name. Text
 ,/SubscriptionProfileVBO/Roles/Guardian/Status/listName,Attribute,Text. Type,xsd:string,0..1, ,,Code List. Name. Text
 ,/SubscriptionProfileVBO/Roles/Guardian/Status/listVersionID,Attribute,Identifier. Type,xsd:token,0..1, ,'123',Code List. Version. Identifier
 ,/SubscriptionProfileVBO/Roles/Guardian/Status/name,Attribute,Text. Type,xsd:string,0..1, ,,Code. Name. Text
 ,/SubscriptionProfileVBO/Roles/Guardian/Status/languageID,Attribute,Identifier. Type,xsd:language,0..1, ,'123',Language. Identifier
 ,/SubscriptionProfileVBO/Roles/Guardian/Status/listURI,Attribute, ,xsd:anyURI,0..1, ,,Code List. Uniform Resource. Identifier
 ,/SubscriptionProfileVBO/Roles/Guardian/Status/listSchemeURI,Attribute, ,xsd:anyURI,0..1, ,,Code List Scheme. Uniform Resource. Identifier
 ,/SubscriptionProfileVBO/Roles/Guardian/Extension,Field, ,xsd:string,0..1, ,,
 ,/SubscriptionProfileVBO/Roles/Extension,Field, ,xsd:string,0..1, ,,
 ,/SubscriptionProfileVBO/Parts,Field, ,xsd:string,1..1, ,,
 ,/SubscriptionProfileVBO/Parts/ContentAccessProfileGroup,Field, ,xsd:string,1..1, ,,
 ,/SubscriptionProfileVBO/Parts/ContentAccessProfileGroup/IDs,Collection, ,xsd:string,0..1, ,,The set of Identifiers for the VBO or component. These should be used to uniquely identifier instances of the business object or component.
 ,/SubscriptionProfileVBO/Parts/ContentAccessProfileGroup/IDs/ID,Field,Identifier. Type,xsd:string,0..*, ,'123',The identifier of the business object or component. This should be used to identify instances of a business object or component. Where the component is being used to reference another business object then this is the primary key of the target object. Use the attributes @schemeName and @schemeAgencyName to identify type of Identifier.
 ,/SubscriptionProfileVBO/Parts/ContentAccessProfileGroup/IDs/ID/schemeID,Attribute,Identifier. Type,xsd:token,0..1, ,'Vodafone',Identification Scheme. Identifier
 ,/SubscriptionProfileVBO/Parts/ContentAccessProfileGroup/IDs/ID/schemeName,Attribute,Text. Type,xsd:string,0..1, ,'Vodafone',Identification Scheme. Name. Text
 ,/SubscriptionProfileVBO/Parts/ContentAccessProfileGroup/IDs/ID/schemeAgencyID,Attribute,Identifier. Type,xsd:token,0..1, ,'123',Identification Scheme. Agency. Identifier
 ,/SubscriptionProfileVBO/Parts/ContentAccessProfileGroup/IDs/ID/schemeAgencyName,Attribute,Text. Type,xsd:string,0..1, ,,Identification Scheme. Agency Name. Text
 ,/SubscriptionProfileVBO/Parts/ContentAccessProfileGroup/IDs/ID/schemeVersionID,Attribute,Identifier. Type,xsd:token,0..1, ,'123',Identification Scheme. Version. Identifier
 ,/SubscriptionProfileVBO/Parts/ContentAccessProfileGroup/IDs/ID/schemeDataURI,Attribute, ,xsd:anyURI,0..1, ,,Identification Scheme Data. Uniform Resource. Identifier
 ,/SubscriptionProfileVBO/Parts/ContentAccessProfileGroup/IDs/ID/schemeURI,Attribute, ,xsd:anyURI,0..1, ,,Identification Scheme. Uniform Resource. Identifier
 ,/SubscriptionProfileVBO/Parts/ContentAccessProfileGroup/Name,Field,Text. Type,xsd:string,0..1, ,,The name of the instance of a business object or component.
 ,/SubscriptionProfileVBO/Parts/ContentAccessProfileGroup/Name/languageID,Attribute,Identifier. Type,xsd:language,0..1, ,'123',Language. Identifier
 ,/SubscriptionProfileVBO/Parts/ContentAccessProfileGroup/Name/languageLocaleID,Attribute,Identifier. Type,xsd:token,0..1, ,'123',Language Locale. Identifier
 ,/SubscriptionProfileVBO/Parts/ContentAccessProfileGroup/Desc,Field,Text. Type,xsd:string,0..1, ,,A free text description of a business object or component.
 ,/SubscriptionProfileVBO/Parts/ContentAccessProfileGroup/Desc/languageID,Attribute,Identifier. Type,xsd:language,0..1, ,'123',Language. Identifier
 ,/SubscriptionProfileVBO/Parts/ContentAccessProfileGroup/Desc/languageLocaleID,Attribute,Identifier. Type,xsd:token,0..1, ,'123',Language Locale. Identifier
 ,/SubscriptionProfileVBO/Parts/ContentAccessProfileGroup/actionCode,Field,Code. Type,xsd:CodeType,0..1, ,'token',The @actionCode attribute is used within a modification operation to indicate the action (add  update  delete) intended on a component.
 ,/SubscriptionProfileVBO/Parts/ContentAccessProfileGroup/Type,Field, ,xsd:string,0..1, ,,A classification of the business object or component. This identifies the sub-type of the instance of object or component.
 ,/SubscriptionProfileVBO/Parts/ContentAccessProfileGroup/Type/listID,Attribute,Identifier. Type,xsd:token,0..1, ,'123',Code List. Identifier
 ,/SubscriptionProfileVBO/Parts/ContentAccessProfileGroup/Type/listAgencyID,Attribute,Identifier. Type,xsd:token,0..1, ,'123',Code List. Agency. Identifier
 ,/SubscriptionProfileVBO/Parts/ContentAccessProfileGroup/Type/listAgencyName,Attribute,Text. Type,xsd:string,0..1, ,,Code List. Agency Name. Text
 ,/SubscriptionProfileVBO/Parts/ContentAccessProfileGroup/Type/listName,Attribute,Text. Type,xsd:string,0..1, ,,Code List. Name. Text
 ,/SubscriptionProfileVBO/Parts/ContentAccessProfileGroup/Type/listVersionID,Attribute,Identifier. Type,xsd:token,0..1, ,'123',Code List. Version. Identifier
 ,/SubscriptionProfileVBO/Parts/ContentAccessProfileGroup/Type/name,Attribute,Text. Type,xsd:string,0..1, ,,Code. Name. Text
 ,/SubscriptionProfileVBO/Parts/ContentAccessProfileGroup/Type/languageID,Attribute,Identifier. Type,xsd:language,0..1, ,'123',Language. Identifier
 ,/SubscriptionProfileVBO/Parts/ContentAccessProfileGroup/Type/listURI,Attribute, ,xsd:anyURI,0..1, ,,Code List. Uniform Resource. Identifier
 ,/SubscriptionProfileVBO/Parts/ContentAccessProfileGroup/Type/listSchemeURI,Attribute, ,xsd:anyURI,0..1, ,,Code List Scheme. Uniform Resource. Identifier
 ,/SubscriptionProfileVBO/Parts/ContentAccessProfileGroup/Categories,Collection, ,xsd:string,0..1, ,,The set of classifications for the business object or component.
 ,/SubscriptionProfileVBO/Parts/ContentAccessProfileGroup/Categories/Category,Collection, ,xsd:string,0..*, ,,A classification applied to the business object or component. More than one classification scheme can be applied using the @listName attribute to identify the type of code list being used. The classification scheme can be used to group instances of the object or component.
 ,/SubscriptionProfileVBO/Parts/ContentAccessProfileGroup/Categories/Category/listID,Attribute,Identifier. Type,xsd:token,0..1, ,'123',Code List. Identifier
 ,/SubscriptionProfileVBO/Parts/ContentAccessProfileGroup/Categories/Category/listAgencyID,Attribute,Identifier. Type,xsd:token,0..1, ,'123',Code List. Agency. Identifier
 ,/SubscriptionProfileVBO/Parts/ContentAccessProfileGroup/Categories/Category/listAgencyName,Attribute,Text. Type,xsd:string,0..1, ,,Code List. Agency Name. Text
 ,/SubscriptionProfileVBO/Parts/ContentAccessProfileGroup/Categories/Category/listName,Attribute,Text. Type,xsd:string,0..1, ,,Code List. Name. Text
 ,/SubscriptionProfileVBO/Parts/ContentAccessProfileGroup/Categories/Category/listVersionID,Attribute,Identifier. Type,xsd:token,0..1, ,'123',Code List. Version. Identifier
 ,/SubscriptionProfileVBO/Parts/ContentAccessProfileGroup/Categories/Category/name,Attribute,Text. Type,xsd:string,0..1, ,,Code. Name. Text
 ,/SubscriptionProfileVBO/Parts/ContentAccessProfileGroup/Categories/Category/languageID,Attribute,Identifier. Type,xsd:language,0..1, ,'123',Language. Identifier
 ,/SubscriptionProfileVBO/Parts/ContentAccessProfileGroup/Categories/Category/listURI,Attribute, ,xsd:anyURI,0..1, ,,Code List. Uniform Resource. Identifier
 ,/SubscriptionProfileVBO/Parts/ContentAccessProfileGroup/Categories/Category/listSchemeURI,Attribute, ,xsd:anyURI,0..1, ,,Code List Scheme. Uniform Resource. Identifier
 ,/SubscriptionProfileVBO/Parts/ContentAccessProfileGroup/Categories/Category/listHierarchyID,Attribute,Identifier. Type,xsd:string,0..1, ,'123',An indication of the hierarchy level of the category when involved in a hierarchical classification  e.g. level 1 -> Category/@listHierarchyID=1  level 2 -> Category/@listHierarchyID=2. In this case the listName should be the same for each level to show their relationship.
 ,/SubscriptionProfileVBO/Parts/ContentAccessProfileGroup/Status,Field,Code. Type,xsd:CodeType,0..1, ,'token',The lifecycle state of the business object or component. This field is used to track the specific state an instance of an object or component is in  e.g. the Customer Bill is Active or the Customer Request has been Cancelled.
 ,/SubscriptionProfileVBO/Parts/ContentAccessProfileGroup/Status/listID,Attribute,Identifier. Type,xsd:token,0..1, ,'123',Code List. Identifier
 ,/SubscriptionProfileVBO/Parts/ContentAccessProfileGroup/Status/listAgencyID,Attribute,Identifier. Type,xsd:token,0..1, ,'123',Code List. Agency. Identifier
 ,/SubscriptionProfileVBO/Parts/ContentAccessProfileGroup/Status/listAgencyName,Attribute,Text. Type,xsd:string,0..1, ,,Code List. Agency Name. Text
 ,/SubscriptionProfileVBO/Parts/ContentAccessProfileGroup/Status/listName,Attribute,Text. Type,xsd:string,0..1, ,,Code List. Name. Text
 ,/SubscriptionProfileVBO/Parts/ContentAccessProfileGroup/Status/listVersionID,Attribute,Identifier. Type,xsd:token,0..1, ,'123',Code List. Version. Identifier
 ,/SubscriptionProfileVBO/Parts/ContentAccessProfileGroup/Status/name,Attribute,Text. Type,xsd:string,0..1, ,,Code. Name. Text
 ,/SubscriptionProfileVBO/Parts/ContentAccessProfileGroup/Status/languageID,Attribute,Identifier. Type,xsd:language,0..1, ,'123',Language. Identifier
 ,/SubscriptionProfileVBO/Parts/ContentAccessProfileGroup/Status/listURI,Attribute, ,xsd:anyURI,0..1, ,,Code List. Uniform Resource. Identifier
 ,/SubscriptionProfileVBO/Parts/ContentAccessProfileGroup/Status/listSchemeURI,Attribute, ,xsd:anyURI,0..1, ,,Code List Scheme. Uniform Resource. Identifier
 ,/SubscriptionProfileVBO/Parts/ContentAccessProfileGroup/CurrentContentAccessProfile,Field, ,xsd:string,0..1, ,,UNDT000005
 ,/SubscriptionProfileVBO/Parts/ContentAccessProfileGroup/CurrentContentAccessProfile/schemeID,Attribute,Identifier. Type,xsd:token,0..1, ,'Vodafone',Identification Scheme. Identifier
 ,/SubscriptionProfileVBO/Parts/ContentAccessProfileGroup/CurrentContentAccessProfile/schemeName,Attribute,Text. Type,xsd:string,0..1, ,'Vodafone',Identification Scheme. Name. Text
 ,/SubscriptionProfileVBO/Parts/ContentAccessProfileGroup/CurrentContentAccessProfile/schemeAgencyID,Attribute,Identifier. Type,xsd:token,0..1, ,'123',Identification Scheme. Agency. Identifier
 ,/SubscriptionProfileVBO/Parts/ContentAccessProfileGroup/CurrentContentAccessProfile/schemeAgencyName,Attribute,Text. Type,xsd:string,0..1, ,,Identification Scheme. Agency Name. Text
 ,/SubscriptionProfileVBO/Parts/ContentAccessProfileGroup/CurrentContentAccessProfile/schemeVersionID,Attribute,Identifier. Type,xsd:token,0..1, ,'123',Identification Scheme. Version. Identifier
 ,/SubscriptionProfileVBO/Parts/ContentAccessProfileGroup/CurrentContentAccessProfile/schemeDataURI,Attribute, ,xsd:anyURI,0..1, ,,Identification Scheme Data. Uniform Resource. Identifier
 ,/SubscriptionProfileVBO/Parts/ContentAccessProfileGroup/CurrentContentAccessProfile/schemeURI,Attribute, ,xsd:anyURI,0..1, ,,Identification Scheme. Uniform Resource. Identifier
 ,/SubscriptionProfileVBO/Parts/ContentAccessProfileGroup/DefaultContentAccessProfile,Field, ,xsd:string,0..1, ,,UNDT000005
 ,/SubscriptionProfileVBO/Parts/ContentAccessProfileGroup/DefaultContentAccessProfile/schemeID,Attribute,Identifier. Type,xsd:token,0..1, ,'Vodafone',Identification Scheme. Identifier
 ,/SubscriptionProfileVBO/Parts/ContentAccessProfileGroup/DefaultContentAccessProfile/schemeName,Attribute,Text. Type,xsd:string,0..1, ,'Vodafone',Identification Scheme. Name. Text
 ,/SubscriptionProfileVBO/Parts/ContentAccessProfileGroup/DefaultContentAccessProfile/schemeAgencyID,Attribute,Identifier. Type,xsd:token,0..1, ,'123',Identification Scheme. Agency. Identifier
 ,/SubscriptionProfileVBO/Parts/ContentAccessProfileGroup/DefaultContentAccessProfile/schemeAgencyName,Attribute,Text. Type,xsd:string,0..1, ,,Identification Scheme. Agency Name. Text
 ,/SubscriptionProfileVBO/Parts/ContentAccessProfileGroup/DefaultContentAccessProfile/schemeVersionID,Attribute,Identifier. Type,xsd:token,0..1, ,'123',Identification Scheme. Version. Identifier
 ,/SubscriptionProfileVBO/Parts/ContentAccessProfileGroup/DefaultContentAccessProfile/schemeDataURI,Attribute, ,xsd:anyURI,0..1, ,,Identification Scheme Data. Uniform Resource. Identifier
 ,/SubscriptionProfileVBO/Parts/ContentAccessProfileGroup/DefaultContentAccessProfile/schemeURI,Attribute, ,xsd:anyURI,0..1, ,,Identification Scheme. Uniform Resource. Identifier
 ,/SubscriptionProfileVBO/Parts/ContentAccessProfileGroup/AllowedContentAccessProfiles,Collection, ,xsd:string,1..1, ,,
 ,/SubscriptionProfileVBO/Parts/ContentAccessProfileGroup/AllowedContentAccessProfiles/ContentAccessProfile,Field, ,xsd:string,0..*, ,,
 ,/SubscriptionProfileVBO/Parts/ContentAccessProfileGroup/AllowedContentAccessProfiles/ContentAccessProfile/IDs,Collection, ,xsd:string,0..1, ,,The set of Identifiers for the VBO or component. These should be used to uniquely identifier instances of the business object or component.
 ,/SubscriptionProfileVBO/Parts/ContentAccessProfileGroup/AllowedContentAccessProfiles/ContentAccessProfile/IDs/ID,Field,Identifier. Type,xsd:string,0..*, ,'123',The identifier of the business object or component. This should be used to identify instances of a business object or component. Where the component is being used to reference another business object then this is the primary key of the target object. Use the attributes @schemeName and @schemeAgencyName to identify type of Identifier.
 ,/SubscriptionProfileVBO/Parts/ContentAccessProfileGroup/AllowedContentAccessProfiles/ContentAccessProfile/IDs/ID/schemeID,Attribute,Identifier. Type,xsd:token,0..1, ,'Vodafone',Identification Scheme. Identifier
 ,/SubscriptionProfileVBO/Parts/ContentAccessProfileGroup/AllowedContentAccessProfiles/ContentAccessProfile/IDs/ID/schemeName,Attribute,Text. Type,xsd:string,0..1, ,'Vodafone',Identification Scheme. Name. Text
 ,/SubscriptionProfileVBO/Parts/ContentAccessProfileGroup/AllowedContentAccessProfiles/ContentAccessProfile/IDs/ID/schemeAgencyID,Attribute,Identifier. Type,xsd:token,0..1, ,'123',Identification Scheme. Agency. Identifier
 ,/SubscriptionProfileVBO/Parts/ContentAccessProfileGroup/AllowedContentAccessProfiles/ContentAccessProfile/IDs/ID/schemeAgencyName,Attribute,Text. Type,xsd:string,0..1, ,,Identification Scheme. Agency Name. Text
 ,/SubscriptionProfileVBO/Parts/ContentAccessProfileGroup/AllowedContentAccessProfiles/ContentAccessProfile/IDs/ID/schemeVersionID,Attribute,Identifier. Type,xsd:token,0..1, ,'123',Identification Scheme. Version. Identifier
 ,/SubscriptionProfileVBO/Parts/ContentAccessProfileGroup/AllowedContentAccessProfiles/ContentAccessProfile/IDs/ID/schemeDataURI,Attribute, ,xsd:anyURI,0..1, ,,Identification Scheme Data. Uniform Resource. Identifier
 ,/SubscriptionProfileVBO/Parts/ContentAccessProfileGroup/AllowedContentAccessProfiles/ContentAccessProfile/IDs/ID/schemeURI,Attribute, ,xsd:anyURI,0..1, ,,Identification Scheme. Uniform Resource. Identifier
 ,/SubscriptionProfileVBO/Parts/ContentAccessProfileGroup/AllowedContentAccessProfiles/ContentAccessProfile/Name,Field,Text. Type,xsd:string,0..1, ,,The name of the instance of a business object or component.
 ,/SubscriptionProfileVBO/Parts/ContentAccessProfileGroup/AllowedContentAccessProfiles/ContentAccessProfile/Name/languageID,Attribute,Identifier. Type,xsd:language,0..1, ,'123',Language. Identifier
 ,/SubscriptionProfileVBO/Parts/ContentAccessProfileGroup/AllowedContentAccessProfiles/ContentAccessProfile/Name/languageLocaleID,Attribute,Identifier. Type,xsd:token,0..1, ,'123',Language Locale. Identifier
 ,/SubscriptionProfileVBO/Parts/ContentAccessProfileGroup/AllowedContentAccessProfiles/ContentAccessProfile/Desc,Field,Text. Type,xsd:string,0..1, ,,A free text description of a business object or component.
 ,/SubscriptionProfileVBO/Parts/ContentAccessProfileGroup/AllowedContentAccessProfiles/ContentAccessProfile/Desc/languageID,Attribute,Identifier. Type,xsd:language,0..1, ,'123',Language. Identifier
 ,/SubscriptionProfileVBO/Parts/ContentAccessProfileGroup/AllowedContentAccessProfiles/ContentAccessProfile/Desc/languageLocaleID,Attribute,Identifier. Type,xsd:token,0..1, ,'123',Language Locale. Identifier
 ,/SubscriptionProfileVBO/Parts/ContentAccessProfileGroup/AllowedContentAccessProfiles/ContentAccessProfile/actionCode,Field,Code. Type,xsd:CodeType,0..1, ,'token',The @actionCode attribute is used within a modification operation to indicate the action (add  update  delete) intended on a component.
 ,/SubscriptionProfileVBO/Parts/ContentAccessProfileGroup/AllowedContentAccessProfiles/ContentAccessProfile/Type,Field, ,xsd:string,0..1, ,,A classification of the business object or component. This identifies the sub-type of the instance of object or component.
 ,/SubscriptionProfileVBO/Parts/ContentAccessProfileGroup/AllowedContentAccessProfiles/ContentAccessProfile/Type/listID,Attribute,Identifier. Type,xsd:token,0..1, ,'123',Code List. Identifier
 ,/SubscriptionProfileVBO/Parts/ContentAccessProfileGroup/AllowedContentAccessProfiles/ContentAccessProfile/Type/listAgencyID,Attribute,Identifier. Type,xsd:token,0..1, ,'123',Code List. Agency. Identifier
 ,/SubscriptionProfileVBO/Parts/ContentAccessProfileGroup/AllowedContentAccessProfiles/ContentAccessProfile/Type/listAgencyName,Attribute,Text. Type,xsd:string,0..1, ,,Code List. Agency Name. Text
 ,/SubscriptionProfileVBO/Parts/ContentAccessProfileGroup/AllowedContentAccessProfiles/ContentAccessProfile/Type/listName,Attribute,Text. Type,xsd:string,0..1, ,,Code List. Name. Text
 ,/SubscriptionProfileVBO/Parts/ContentAccessProfileGroup/AllowedContentAccessProfiles/ContentAccessProfile/Type/listVersionID,Attribute,Identifier. Type,xsd:token,0..1, ,'123',Code List. Version. Identifier
 ,/SubscriptionProfileVBO/Parts/ContentAccessProfileGroup/AllowedContentAccessProfiles/ContentAccessProfile/Type/name,Attribute,Text. Type,xsd:string,0..1, ,,Code. Name. Text
 ,/SubscriptionProfileVBO/Parts/ContentAccessProfileGroup/AllowedContentAccessProfiles/ContentAccessProfile/Type/languageID,Attribute,Identifier. Type,xsd:language,0..1, ,'123',Language. Identifier
 ,/SubscriptionProfileVBO/Parts/ContentAccessProfileGroup/AllowedContentAccessProfiles/ContentAccessProfile/Type/listURI,Attribute, ,xsd:anyURI,0..1, ,,Code List. Uniform Resource. Identifier
 ,/SubscriptionProfileVBO/Parts/ContentAccessProfileGroup/AllowedContentAccessProfiles/ContentAccessProfile/Type/listSchemeURI,Attribute, ,xsd:anyURI,0..1, ,,Code List Scheme. Uniform Resource. Identifier
 ,/SubscriptionProfileVBO/Parts/ContentAccessProfileGroup/AllowedContentAccessProfiles/ContentAccessProfile/Categories,Collection, ,xsd:string,0..1, ,,The set of classifications for the business object or component.
 ,/SubscriptionProfileVBO/Parts/ContentAccessProfileGroup/AllowedContentAccessProfiles/ContentAccessProfile/Categories/Category,Collection, ,xsd:string,0..*, ,,A classification applied to the business object or component. More than one classification scheme can be applied using the @listName attribute to identify the type of code list being used. The classification scheme can be used to group instances of the object or component.
 ,/SubscriptionProfileVBO/Parts/ContentAccessProfileGroup/AllowedContentAccessProfiles/ContentAccessProfile/Categories/Category/listID,Attribute,Identifier. Type,xsd:token,0..1, ,'123',Code List. Identifier
 ,/SubscriptionProfileVBO/Parts/ContentAccessProfileGroup/AllowedContentAccessProfiles/ContentAccessProfile/Categories/Category/listAgencyID,Attribute,Identifier. Type,xsd:token,0..1, ,'123',Code List. Agency. Identifier
 ,/SubscriptionProfileVBO/Parts/ContentAccessProfileGroup/AllowedContentAccessProfiles/ContentAccessProfile/Categories/Category/listAgencyName,Attribute,Text. Type,xsd:string,0..1, ,,Code List. Agency Name. Text
 ,/SubscriptionProfileVBO/Parts/ContentAccessProfileGroup/AllowedContentAccessProfiles/ContentAccessProfile/Categories/Category/listName,Attribute,Text. Type,xsd:string,0..1, ,,Code List. Name. Text
 ,/SubscriptionProfileVBO/Parts/ContentAccessProfileGroup/AllowedContentAccessProfiles/ContentAccessProfile/Categories/Category/listVersionID,Attribute,Identifier. Type,xsd:token,0..1, ,'123',Code List. Version. Identifier
 ,/SubscriptionProfileVBO/Parts/ContentAccessProfileGroup/AllowedContentAccessProfiles/ContentAccessProfile/Categories/Category/name,Attribute,Text. Type,xsd:string,0..1, ,,Code. Name. Text
 ,/SubscriptionProfileVBO/Parts/ContentAccessProfileGroup/AllowedContentAccessProfiles/ContentAccessProfile/Categories/Category/languageID,Attribute,Identifier. Type,xsd:language,0..1, ,'123',Language. Identifier
 ,/SubscriptionProfileVBO/Parts/ContentAccessProfileGroup/AllowedContentAccessProfiles/ContentAccessProfile/Categories/Category/listURI,Attribute, ,xsd:anyURI,0..1, ,,Code List. Uniform Resource. Identifier
 ,/SubscriptionProfileVBO/Parts/ContentAccessProfileGroup/AllowedContentAccessProfiles/ContentAccessProfile/Categories/Category/listSchemeURI,Attribute, ,xsd:anyURI,0..1, ,,Code List Scheme. Uniform Resource. Identifier
 ,/SubscriptionProfileVBO/Parts/ContentAccessProfileGroup/AllowedContentAccessProfiles/ContentAccessProfile/Categories/Category/listHierarchyID,Attribute,Identifier. Type,xsd:string,0..1, ,'123',An indication of the hierarchy level of the category when involved in a hierarchical classification  e.g. level 1 -> Category/@listHierarchyID=1  level 2 -> Category/@listHierarchyID=2. In this case the listName should be the same for each level to show their relationship.
 ,/SubscriptionProfileVBO/Parts/ContentAccessProfileGroup/AllowedContentAccessProfiles/ContentAccessProfile/Status,Field,Code. Type,xsd:CodeType,0..1, ,'token',The lifecycle state of the business object or component. This field is used to track the specific state an instance of an object or component is in  e.g. the Customer Bill is Active or the Customer Request has been Cancelled.
 ,/SubscriptionProfileVBO/Parts/ContentAccessProfileGroup/AllowedContentAccessProfiles/ContentAccessProfile/Status/listID,Attribute,Identifier. Type,xsd:token,0..1, ,'123',Code List. Identifier
 ,/SubscriptionProfileVBO/Parts/ContentAccessProfileGroup/AllowedContentAccessProfiles/ContentAccessProfile/Status/listAgencyID,Attribute,Identifier. Type,xsd:token,0..1, ,'123',Code List. Agency. Identifier
 ,/SubscriptionProfileVBO/Parts/ContentAccessProfileGroup/AllowedContentAccessProfiles/ContentAccessProfile/Status/listAgencyName,Attribute,Text. Type,xsd:string,0..1, ,,Code List. Agency Name. Text
 ,/SubscriptionProfileVBO/Parts/ContentAccessProfileGroup/AllowedContentAccessProfiles/ContentAccessProfile/Status/listName,Attribute,Text. Type,xsd:string,0..1, ,,Code List. Name. Text
 ,/SubscriptionProfileVBO/Parts/ContentAccessProfileGroup/AllowedContentAccessProfiles/ContentAccessProfile/Status/listVersionID,Attribute,Identifier. Type,xsd:token,0..1, ,'123',Code List. Version. Identifier
 ,/SubscriptionProfileVBO/Parts/ContentAccessProfileGroup/AllowedContentAccessProfiles/ContentAccessProfile/Status/name,Attribute,Text. Type,xsd:string,0..1, ,,Code. Name. Text
 ,/SubscriptionProfileVBO/Parts/ContentAccessProfileGroup/AllowedContentAccessProfiles/ContentAccessProfile/Status/languageID,Attribute,Identifier. Type,xsd:language,0..1, ,'123',Language. Identifier
 ,/SubscriptionProfileVBO/Parts/ContentAccessProfileGroup/AllowedContentAccessProfiles/ContentAccessProfile/Status/listURI,Attribute, ,xsd:anyURI,0..1, ,,Code List. Uniform Resource. Identifier
 ,/SubscriptionProfileVBO/Parts/ContentAccessProfileGroup/AllowedContentAccessProfiles/ContentAccessProfile/Status/listSchemeURI,Attribute, ,xsd:anyURI,0..1, ,,Code List Scheme. Uniform Resource. Identifier
 ,/SubscriptionProfileVBO/Parts/ContentAccessProfileGroup/AllowedContentAccessProfiles/ContentAccessProfile/NoAccessNotification,Field, ,xsd:string,1..1, ,,UNDT000010
 ,/SubscriptionProfileVBO/Parts/ContentAccessProfileGroup/AllowedContentAccessProfiles/ContentAccessProfile/NoAccessNotification/languageID,Attribute,Identifier. Type,xsd:language,0..1, ,'123',Language. Identifier
 ,/SubscriptionProfileVBO/Parts/ContentAccessProfileGroup/AllowedContentAccessProfiles/ContentAccessProfile/NoAccessNotification/languageLocaleID,Attribute,Identifier. Type,xsd:token,0..1, ,'123',Language Locale. Identifier
 ,/SubscriptionProfileVBO/Parts/ContentAccessProfileGroup/AllowedContentAccessProfiles/ContentAccessProfile/Extension,Field, ,xsd:string,0..1, ,,
 ,/SubscriptionProfileVBO/Parts/ContentAccessProfileGroup/Extension,Field, ,xsd:string,0..1, ,,
 ,/SubscriptionProfileVBO/Parts/Subscription,Field, ,xsd:string,1..1, ,,
 ,/SubscriptionProfileVBO/Parts/Subscription/IDs,Collection, ,xsd:string,0..1, ,,The set of Identifiers for the VBO or component. These should be used to uniquely identifier instances of the business object or component.
 ,/SubscriptionProfileVBO/Parts/Subscription/IDs/ID,Field,Identifier. Type,xsd:string,0..*, ,'123',The identifier of the business object or component. This should be used to identify instances of a business object or component. Where the component is being used to reference another business object then this is the primary key of the target object. Use the attributes @schemeName and @schemeAgencyName to identify type of Identifier.
 ,/SubscriptionProfileVBO/Parts/Subscription/IDs/ID/schemeID,Attribute,Identifier. Type,xsd:token,0..1, ,'Vodafone',Identification Scheme. Identifier
 ,/SubscriptionProfileVBO/Parts/Subscription/IDs/ID/schemeName,Attribute,Text. Type,xsd:string,0..1, ,'Vodafone',Identification Scheme. Name. Text
 ,/SubscriptionProfileVBO/Parts/Subscription/IDs/ID/schemeAgencyID,Attribute,Identifier. Type,xsd:token,0..1, ,'123',Identification Scheme. Agency. Identifier
 ,/SubscriptionProfileVBO/Parts/Subscription/IDs/ID/schemeAgencyName,Attribute,Text. Type,xsd:string,0..1, ,,Identification Scheme. Agency Name. Text
 ,/SubscriptionProfileVBO/Parts/Subscription/IDs/ID/schemeVersionID,Attribute,Identifier. Type,xsd:token,0..1, ,'123',Identification Scheme. Version. Identifier
 ,/SubscriptionProfileVBO/Parts/Subscription/IDs/ID/schemeDataURI,Attribute, ,xsd:anyURI,0..1, ,,Identification Scheme Data. Uniform Resource. Identifier
 ,/SubscriptionProfileVBO/Parts/Subscription/IDs/ID/schemeURI,Attribute, ,xsd:anyURI,0..1, ,,Identification Scheme. Uniform Resource. Identifier
 ,/SubscriptionProfileVBO/Parts/Subscription/Name,Field,Text. Type,xsd:string,0..1, ,,The name of the instance of a business object or component.
 ,/SubscriptionProfileVBO/Parts/Subscription/Name/languageID,Attribute,Identifier. Type,xsd:language,0..1, ,'123',Language. Identifier
 ,/SubscriptionProfileVBO/Parts/Subscription/Name/languageLocaleID,Attribute,Identifier. Type,xsd:token,0..1, ,'123',Language Locale. Identifier
 ,/SubscriptionProfileVBO/Parts/Subscription/Desc,Field,Text. Type,xsd:string,0..1, ,,A free text description of a business object or component.
 ,/SubscriptionProfileVBO/Parts/Subscription/Desc/languageID,Attribute,Identifier. Type,xsd:language,0..1, ,'123',Language. Identifier
 ,/SubscriptionProfileVBO/Parts/Subscription/Desc/languageLocaleID,Attribute,Identifier. Type,xsd:token,0..1, ,'123',Language Locale. Identifier
 ,/SubscriptionProfileVBO/Parts/Subscription/actionCode,Field,Code. Type,xsd:CodeType,0..1, ,'token',The @actionCode attribute is used within a modification operation to indicate the action (add  update  delete) intended on a component.
 ,/SubscriptionProfileVBO/Parts/Subscription/Type,Field, ,xsd:string,0..1, ,,A classification of the business object or component. This identifies the sub-type of the instance of object or component.
 ,/SubscriptionProfileVBO/Parts/Subscription/Type/listID,Attribute,Identifier. Type,xsd:token,0..1, ,'123',Code List. Identifier
 ,/SubscriptionProfileVBO/Parts/Subscription/Type/listAgencyID,Attribute,Identifier. Type,xsd:token,0..1, ,'123',Code List. Agency. Identifier
 ,/SubscriptionProfileVBO/Parts/Subscription/Type/listAgencyName,Attribute,Text. Type,xsd:string,0..1, ,,Code List. Agency Name. Text
 ,/SubscriptionProfileVBO/Parts/Subscription/Type/listName,Attribute,Text. Type,xsd:string,0..1, ,,Code List. Name. Text
 ,/SubscriptionProfileVBO/Parts/Subscription/Type/listVersionID,Attribute,Identifier. Type,xsd:token,0..1, ,'123',Code List. Version. Identifier
 ,/SubscriptionProfileVBO/Parts/Subscription/Type/name,Attribute,Text. Type,xsd:string,0..1, ,,Code. Name. Text
 ,/SubscriptionProfileVBO/Parts/Subscription/Type/languageID,Attribute,Identifier. Type,xsd:language,0..1, ,'123',Language. Identifier
 ,/SubscriptionProfileVBO/Parts/Subscription/Type/listURI,Attribute, ,xsd:anyURI,0..1, ,,Code List. Uniform Resource. Identifier
 ,/SubscriptionProfileVBO/Parts/Subscription/Type/listSchemeURI,Attribute, ,xsd:anyURI,0..1, ,,Code List Scheme. Uniform Resource. Identifier
 ,/SubscriptionProfileVBO/Parts/Subscription/Categories,Collection, ,xsd:string,0..1, ,,The set of classifications for the business object or component.
 ,/SubscriptionProfileVBO/Parts/Subscription/Categories/Category,Collection, ,xsd:string,0..*, ,,A classification applied to the business object or component. More than one classification scheme can be applied using the @listName attribute to identify the type of code list being used. The classification scheme can be used to group instances of the object or component.
 ,/SubscriptionProfileVBO/Parts/Subscription/Categories/Category/listID,Attribute,Identifier. Type,xsd:token,0..1, ,'123',Code List. Identifier
 ,/SubscriptionProfileVBO/Parts/Subscription/Categories/Category/listAgencyID,Attribute,Identifier. Type,xsd:token,0..1, ,'123',Code List. Agency. Identifier
 ,/SubscriptionProfileVBO/Parts/Subscription/Categories/Category/listAgencyName,Attribute,Text. Type,xsd:string,0..1, ,,Code List. Agency Name. Text
 ,/SubscriptionProfileVBO/Parts/Subscription/Categories/Category/listName,Attribute,Text. Type,xsd:string,0..1, ,,Code List. Name. Text
 ,/SubscriptionProfileVBO/Parts/Subscription/Categories/Category/listVersionID,Attribute,Identifier. Type,xsd:token,0..1, ,'123',Code List. Version. Identifier
 ,/SubscriptionProfileVBO/Parts/Subscription/Categories/Category/name,Attribute,Text. Type,xsd:string,0..1, ,,Code. Name. Text
 ,/SubscriptionProfileVBO/Parts/Subscription/Categories/Category/languageID,Attribute,Identifier. Type,xsd:language,0..1, ,'123',Language. Identifier
 ,/SubscriptionProfileVBO/Parts/Subscription/Categories/Category/listURI,Attribute, ,xsd:anyURI,0..1, ,,Code List. Uniform Resource. Identifier
 ,/SubscriptionProfileVBO/Parts/Subscription/Categories/Category/listSchemeURI,Attribute, ,xsd:anyURI,0..1, ,,Code List Scheme. Uniform Resource. Identifier
 ,/SubscriptionProfileVBO/Parts/Subscription/Categories/Category/listHierarchyID,Attribute,Identifier. Type,xsd:string,0..1, ,'123',An indication of the hierarchy level of the category when involved in a hierarchical classification  e.g. level 1 -> Category/@listHierarchyID=1  level 2 -> Category/@listHierarchyID=2. In this case the listName should be the same for each level to show their relationship.
 ,/SubscriptionProfileVBO/Parts/Subscription/Status,Field,Code. Type,xsd:CodeType,0..1, ,'token',The lifecycle state of the business object or component. This field is used to track the specific state an instance of an object or component is in  e.g. the Customer Bill is Active or the Customer Request has been Cancelled.
 ,/SubscriptionProfileVBO/Parts/Subscription/Status/listID,Attribute,Identifier. Type,xsd:token,0..1, ,'123',Code List. Identifier
 ,/SubscriptionProfileVBO/Parts/Subscription/Status/listAgencyID,Attribute,Identifier. Type,xsd:token,0..1, ,'123',Code List. Agency. Identifier
 ,/SubscriptionProfileVBO/Parts/Subscription/Status/listAgencyName,Attribute,Text. Type,xsd:string,0..1, ,,Code List. Agency Name. Text
 ,/SubscriptionProfileVBO/Parts/Subscription/Status/listName,Attribute,Text. Type,xsd:string,0..1, ,,Code List. Name. Text
 ,/SubscriptionProfileVBO/Parts/Subscription/Status/listVersionID,Attribute,Identifier. Type,xsd:token,0..1, ,'123',Code List. Version. Identifier
 ,/SubscriptionProfileVBO/Parts/Subscription/Status/name,Attribute,Text. Type,xsd:string,0..1, ,,Code. Name. Text
 ,/SubscriptionProfileVBO/Parts/Subscription/Status/languageID,Attribute,Identifier. Type,xsd:language,0..1, ,'123',Language. Identifier
 ,/SubscriptionProfileVBO/Parts/Subscription/Status/listURI,Attribute, ,xsd:anyURI,0..1, ,,Code List. Uniform Resource. Identifier
 ,/SubscriptionProfileVBO/Parts/Subscription/Status/listSchemeURI,Attribute, ,xsd:anyURI,0..1, ,,Code List Scheme. Uniform Resource. Identifier
 ,/SubscriptionProfileVBO/Parts/Subscription/MSISDN,Field, ,xsd:string,1..1, ,,UNDT000005
 ,/SubscriptionProfileVBO/Parts/Subscription/MSISDN/schemeID,Attribute,Identifier. Type,xsd:token,0..1, ,'Vodafone',Identification Scheme. Identifier
 ,/SubscriptionProfileVBO/Parts/Subscription/MSISDN/schemeName,Attribute,Text. Type,xsd:string,0..1, ,'Vodafone',Identification Scheme. Name. Text
 ,/SubscriptionProfileVBO/Parts/Subscription/MSISDN/schemeAgencyID,Attribute,Identifier. Type,xsd:token,0..1, ,'123',Identification Scheme. Agency. Identifier
 ,/SubscriptionProfileVBO/Parts/Subscription/MSISDN/schemeAgencyName,Attribute,Text. Type,xsd:string,0..1, ,,Identification Scheme. Agency Name. Text
 ,/SubscriptionProfileVBO/Parts/Subscription/MSISDN/schemeVersionID,Attribute,Identifier. Type,xsd:token,0..1, ,'123',Identification Scheme. Version. Identifier
 ,/SubscriptionProfileVBO/Parts/Subscription/MSISDN/schemeDataURI,Attribute, ,xsd:anyURI,0..1, ,,Identification Scheme Data. Uniform Resource. Identifier
 ,/SubscriptionProfileVBO/Parts/Subscription/MSISDN/schemeURI,Attribute, ,xsd:anyURI,0..1, ,,Identification Scheme. Uniform Resource. Identifier
 ,/SubscriptionProfileVBO/Parts/Subscription/ValidityPeriod,Field, ,xsd:string,0..1, ,,A component that states the date and time from which this business object is effective (or valid) and the date and time to which it is effective. Again the ISO8601 standard must be used.
 ,/SubscriptionProfileVBO/Parts/Subscription/ValidityPeriod/FromDate,Field,Date. Type,xsd:date,0..1, ,'2018-05-06',The date from which the business object or component is effective.
 ,/SubscriptionProfileVBO/Parts/Subscription/ValidityPeriod/FromDate/[xsd:choice]/DateString,Collection,DateTime. Type,xsd:string,0..1,ISO8601,'2018-05-06',
 ,/SubscriptionProfileVBO/Parts/Subscription/ValidityPeriod/FromDate/[xsd:choice]/DateString/format,Attribute, ,xsd:string,0..1, ,,
 ,/SubscriptionProfileVBO/Parts/Subscription/ValidityPeriod/FromDate/[xsd:choice]/Date,Attribute,Date. Type,xsd:date,0..1, ,'2018-05-06',
 ,/SubscriptionProfileVBO/Parts/Subscription/ValidityPeriod/ToDate,Field,Date. Type,xsd:date,0..1, ,'2018-05-06',The date to which the business object or component is effective.
 ,/SubscriptionProfileVBO/Parts/Subscription/ValidityPeriod/ToDate/[xsd:choice]/DateString,Collection,DateTime. Type,xsd:string,0..1,ISO8601,'2018-05-06',
 ,/SubscriptionProfileVBO/Parts/Subscription/ValidityPeriod/ToDate/[xsd:choice]/DateString/format,Attribute, ,xsd:string,0..1, ,,
 ,/SubscriptionProfileVBO/Parts/Subscription/ValidityPeriod/ToDate/[xsd:choice]/Date,Attribute,Date. Type,xsd:date,0..1, ,'2018-05-06',
 ,/SubscriptionProfileVBO/Parts/Subscription/Extension,Field, ,xsd:string,0..1, ,,
 ,/SubscriptionProfileVBO/Parts/Specification,Field, ,xsd:string,1..1, ,,
 ,/SubscriptionProfileVBO/Parts/Specification/IDs,Collection, ,xsd:string,0..1, ,,The set of Identifiers for the VBO or component. These should be used to uniquely identifier instances of the business object or component.
 ,/SubscriptionProfileVBO/Parts/Specification/IDs/ID,Field,Identifier. Type,xsd:string,0..*, ,'123',The identifier of the business object or component. This should be used to identify instances of a business object or component. Where the component is being used to reference another business object then this is the primary key of the target object. Use the attributes @schemeName and @schemeAgencyName to identify type of Identifier.
 ,/SubscriptionProfileVBO/Parts/Specification/IDs/ID/schemeID,Attribute,Identifier. Type,xsd:token,0..1, ,'Vodafone',Identification Scheme. Identifier
 ,/SubscriptionProfileVBO/Parts/Specification/IDs/ID/schemeName,Attribute,Text. Type,xsd:string,0..1, ,'Vodafone',Identification Scheme. Name. Text
 ,/SubscriptionProfileVBO/Parts/Specification/IDs/ID/schemeAgencyID,Attribute,Identifier. Type,xsd:token,0..1, ,'123',Identification Scheme. Agency. Identifier
 ,/SubscriptionProfileVBO/Parts/Specification/IDs/ID/schemeAgencyName,Attribute,Text. Type,xsd:string,0..1, ,,Identification Scheme. Agency Name. Text
 ,/SubscriptionProfileVBO/Parts/Specification/IDs/ID/schemeVersionID,Attribute,Identifier. Type,xsd:token,0..1, ,'123',Identification Scheme. Version. Identifier
 ,/SubscriptionProfileVBO/Parts/Specification/IDs/ID/schemeDataURI,Attribute, ,xsd:anyURI,0..1, ,,Identification Scheme Data. Uniform Resource. Identifier
 ,/SubscriptionProfileVBO/Parts/Specification/IDs/ID/schemeURI,Attribute, ,xsd:anyURI,0..1, ,,Identification Scheme. Uniform Resource. Identifier
 ,/SubscriptionProfileVBO/Parts/Specification/Name,Field,Text. Type,xsd:string,0..1, ,,The name of the instance of a business object or component.
 ,/SubscriptionProfileVBO/Parts/Specification/Name/languageID,Attribute,Identifier. Type,xsd:language,0..1, ,'123',Language. Identifier
 ,/SubscriptionProfileVBO/Parts/Specification/Name/languageLocaleID,Attribute,Identifier. Type,xsd:token,0..1, ,'123',Language Locale. Identifier
 ,/SubscriptionProfileVBO/Parts/Specification/Desc,Field,Text. Type,xsd:string,0..1, ,,A free text description of a business object or component.
 ,/SubscriptionProfileVBO/Parts/Specification/Desc/languageID,Attribute,Identifier. Type,xsd:language,0..1, ,'123',Language. Identifier
 ,/SubscriptionProfileVBO/Parts/Specification/Desc/languageLocaleID,Attribute,Identifier. Type,xsd:token,0..1, ,'123',Language Locale. Identifier
 ,/SubscriptionProfileVBO/Parts/Specification/actionCode,Field,Code. Type,xsd:CodeType,0..1, ,'token',The @actionCode attribute is used within a modification operation to indicate the action (add  update  delete) intended on a component.
 ,/SubscriptionProfileVBO/Parts/Specification/Type,Field, ,xsd:string,0..1, ,,A classification of the business object or component. This identifies the sub-type of the instance of object or component.
 ,/SubscriptionProfileVBO/Parts/Specification/Type/listID,Attribute,Identifier. Type,xsd:token,0..1, ,'123',Code List. Identifier
 ,/SubscriptionProfileVBO/Parts/Specification/Type/listAgencyID,Attribute,Identifier. Type,xsd:token,0..1, ,'123',Code List. Agency. Identifier
 ,/SubscriptionProfileVBO/Parts/Specification/Type/listAgencyName,Attribute,Text. Type,xsd:string,0..1, ,,Code List. Agency Name. Text
 ,/SubscriptionProfileVBO/Parts/Specification/Type/listName,Attribute,Text. Type,xsd:string,0..1, ,,Code List. Name. Text
 ,/SubscriptionProfileVBO/Parts/Specification/Type/listVersionID,Attribute,Identifier. Type,xsd:token,0..1, ,'123',Code List. Version. Identifier
 ,/SubscriptionProfileVBO/Parts/Specification/Type/name,Attribute,Text. Type,xsd:string,0..1, ,,Code. Name. Text
 ,/SubscriptionProfileVBO/Parts/Specification/Type/languageID,Attribute,Identifier. Type,xsd:language,0..1, ,'123',Language. Identifier
 ,/SubscriptionProfileVBO/Parts/Specification/Type/listURI,Attribute, ,xsd:anyURI,0..1, ,,Code List. Uniform Resource. Identifier
 ,/SubscriptionProfileVBO/Parts/Specification/Type/listSchemeURI,Attribute, ,xsd:anyURI,0..1, ,,Code List Scheme. Uniform Resource. Identifier
 ,/SubscriptionProfileVBO/Parts/Specification/Categories,Collection, ,xsd:string,0..1, ,,The set of classifications for the business object or component.
 ,/SubscriptionProfileVBO/Parts/Specification/Categories/Category,Collection, ,xsd:string,0..*, ,,A classification applied to the business object or component. More than one classification scheme can be applied using the @listName attribute to identify the type of code list being used. The classification scheme can be used to group instances of the object or component.
 ,/SubscriptionProfileVBO/Parts/Specification/Categories/Category/listID,Attribute,Identifier. Type,xsd:token,0..1, ,'123',Code List. Identifier
 ,/SubscriptionProfileVBO/Parts/Specification/Categories/Category/listAgencyID,Attribute,Identifier. Type,xsd:token,0..1, ,'123',Code List. Agency. Identifier
 ,/SubscriptionProfileVBO/Parts/Specification/Categories/Category/listAgencyName,Attribute,Text. Type,xsd:string,0..1, ,,Code List. Agency Name. Text
 ,/SubscriptionProfileVBO/Parts/Specification/Categories/Category/listName,Attribute,Text. Type,xsd:string,0..1, ,,Code List. Name. Text
 ,/SubscriptionProfileVBO/Parts/Specification/Categories/Category/listVersionID,Attribute,Identifier. Type,xsd:token,0..1, ,'123',Code List. Version. Identifier
 ,/SubscriptionProfileVBO/Parts/Specification/Categories/Category/name,Attribute,Text. Type,xsd:string,0..1, ,,Code. Name. Text
 ,/SubscriptionProfileVBO/Parts/Specification/Categories/Category/languageID,Attribute,Identifier. Type,xsd:language,0..1, ,'123',Language. Identifier
 ,/SubscriptionProfileVBO/Parts/Specification/Categories/Category/listURI,Attribute, ,xsd:anyURI,0..1, ,,Code List. Uniform Resource. Identifier
 ,/SubscriptionProfileVBO/Parts/Specification/Categories/Category/listSchemeURI,Attribute, ,xsd:anyURI,0..1, ,,Code List Scheme. Uniform Resource. Identifier
 ,/SubscriptionProfileVBO/Parts/Specification/Categories/Category/listHierarchyID,Attribute,Identifier. Type,xsd:string,0..1, ,'123',An indication of the hierarchy level of the category when involved in a hierarchical classification  e.g. level 1 -> Category/@listHierarchyID=1  level 2 -> Category/@listHierarchyID=2. In this case the listName should be the same for each level to show their relationship.
 ,/SubscriptionProfileVBO/Parts/Specification/Status,Field,Code. Type,xsd:CodeType,0..1, ,'token',The lifecycle state of the business object or component. This field is used to track the specific state an instance of an object or component is in  e.g. the Customer Bill is Active or the Customer Request has been Cancelled.
 ,/SubscriptionProfileVBO/Parts/Specification/Status/listID,Attribute,Identifier. Type,xsd:token,0..1, ,'123',Code List. Identifier
 ,/SubscriptionProfileVBO/Parts/Specification/Status/listAgencyID,Attribute,Identifier. Type,xsd:token,0..1, ,'123',Code List. Agency. Identifier
 ,/SubscriptionProfileVBO/Parts/Specification/Status/listAgencyName,Attribute,Text. Type,xsd:string,0..1, ,,Code List. Agency Name. Text
 ,/SubscriptionProfileVBO/Parts/Specification/Status/listName,Attribute,Text. Type,xsd:string,0..1, ,,Code List. Name. Text
 ,/SubscriptionProfileVBO/Parts/Specification/Status/listVersionID,Attribute,Identifier. Type,xsd:token,0..1, ,'123',Code List. Version. Identifier
 ,/SubscriptionProfileVBO/Parts/Specification/Status/name,Attribute,Text. Type,xsd:string,0..1, ,,Code. Name. Text
 ,/SubscriptionProfileVBO/Parts/Specification/Status/languageID,Attribute,Identifier. Type,xsd:language,0..1, ,'123',Language. Identifier
 ,/SubscriptionProfileVBO/Parts/Specification/Status/listURI,Attribute, ,xsd:anyURI,0..1, ,,Code List. Uniform Resource. Identifier
 ,/SubscriptionProfileVBO/Parts/Specification/Status/listSchemeURI,Attribute, ,xsd:anyURI,0..1, ,,Code List Scheme. Uniform Resource. Identifier
 ,/SubscriptionProfileVBO/Parts/Specification/CharacteristicsValue,Collection,Code. Type,xsd:string,0..*, ,,The set of characteristics for the specification.
 ,/SubscriptionProfileVBO/Parts/Specification/CharacteristicsValue/Value,Field,Code. Type,xsd:string,0..1, ,,The value of the characteristic
 ,/SubscriptionProfileVBO/Parts/Specification/CharacteristicsValue/Value/languageID,Attribute,Identifier. Type,xsd:language,0..1, ,'123',Language. Identifier
 ,/SubscriptionProfileVBO/Parts/Specification/CharacteristicsValue/Value/languageLocaleID,Attribute,Identifier. Type,xsd:token,0..1, ,'123',Language Locale. Identifier
 ,/SubscriptionProfileVBO/Parts/Specification/CharacteristicsValue/Type,Field, ,xsd:string,0..1, ,,A classification of the characteristic component. This identifies the sub-type of the instance of object or component.
 ,/SubscriptionProfileVBO/Parts/Specification/CharacteristicsValue/Type/listID,Attribute,Identifier. Type,xsd:token,0..1, ,'123',Code List. Identifier
 ,/SubscriptionProfileVBO/Parts/Specification/CharacteristicsValue/Type/listAgencyID,Attribute,Identifier. Type,xsd:token,0..1, ,'123',Code List. Agency. Identifier
 ,/SubscriptionProfileVBO/Parts/Specification/CharacteristicsValue/Type/listAgencyName,Attribute,Text. Type,xsd:string,0..1, ,,Code List. Agency Name. Text
 ,/SubscriptionProfileVBO/Parts/Specification/CharacteristicsValue/Type/listName,Attribute,Text. Type,xsd:string,0..1, ,,Code List. Name. Text
 ,/SubscriptionProfileVBO/Parts/Specification/CharacteristicsValue/Type/listVersionID,Attribute,Identifier. Type,xsd:token,0..1, ,'123',Code List. Version. Identifier
 ,/SubscriptionProfileVBO/Parts/Specification/CharacteristicsValue/Type/name,Attribute,Text. Type,xsd:string,0..1, ,,Code. Name. Text
 ,/SubscriptionProfileVBO/Parts/Specification/CharacteristicsValue/Type/languageID,Attribute,Identifier. Type,xsd:language,0..1, ,'123',Language. Identifier
 ,/SubscriptionProfileVBO/Parts/Specification/CharacteristicsValue/Type/listURI,Attribute, ,xsd:anyURI,0..1, ,,Code List. Uniform Resource. Identifier
 ,/SubscriptionProfileVBO/Parts/Specification/CharacteristicsValue/Type/listSchemeURI,Attribute, ,xsd:anyURI,0..1, ,,Code List Scheme. Uniform Resource. Identifier
 ,/SubscriptionProfileVBO/Parts/Specification/CharacteristicsValue/Description,Field,Text. Type,xsd:string,0..1, ,,A free text description of the characteristic.
 ,/SubscriptionProfileVBO/Parts/Specification/CharacteristicsValue/Description/languageID,Attribute,Identifier. Type,xsd:language,0..1, ,'123',Language. Identifier
 ,/SubscriptionProfileVBO/Parts/Specification/CharacteristicsValue/Description/languageLocaleID,Attribute,Identifier. Type,xsd:token,0..1, ,'123',Language Locale. Identifier
 ,/SubscriptionProfileVBO/Parts/Specification/CharacteristicsValue/CreationTime,Field,DateTime. Type,xsd:string,0..1,ISO8601,'2015-04-01T00:00:00',The date and time the characteristic was created.
 ,/SubscriptionProfileVBO/Parts/Specification/CharacteristicsValue/CreationTime/format,Attribute, ,xsd:string,0..1, ,,Date Time. Format. Text
 ,/SubscriptionProfileVBO/Parts/Specification/CharacteristicsValue/ValidityPeriod,Field, ,xsd:string,0..1, ,,The from and to dates when the object is valid.
 ,/SubscriptionProfileVBO/Parts/Specification/CharacteristicsValue/ValidityPeriod/FromDate,Field,Date. Type,xsd:date,0..1, ,'2018-05-06',The date from which the business object or component is effective.
 ,/SubscriptionProfileVBO/Parts/Specification/CharacteristicsValue/ValidityPeriod/FromDate/[xsd:choice]/DateString,Collection,DateTime. Type,xsd:string,0..1,ISO8601,'2018-05-06',
 ,/SubscriptionProfileVBO/Parts/Specification/CharacteristicsValue/ValidityPeriod/FromDate/[xsd:choice]/DateString/format,Attribute, ,xsd:string,0..1, ,,
 ,/SubscriptionProfileVBO/Parts/Specification/CharacteristicsValue/ValidityPeriod/FromDate/[xsd:choice]/Date,Attribute,Date. Type,xsd:date,0..1, ,'2018-05-06',
 ,/SubscriptionProfileVBO/Parts/Specification/CharacteristicsValue/ValidityPeriod/ToDate,Field,Date. Type,xsd:date,0..1, ,'2018-05-06',The date to which the business object or component is effective.
 ,/SubscriptionProfileVBO/Parts/Specification/CharacteristicsValue/ValidityPeriod/ToDate/[xsd:choice]/DateString,Collection,DateTime. Type,xsd:string,0..1,ISO8601,'2018-05-06',
 ,/SubscriptionProfileVBO/Parts/Specification/CharacteristicsValue/ValidityPeriod/ToDate/[xsd:choice]/DateString/format,Attribute, ,xsd:string,0..1, ,,
 ,/SubscriptionProfileVBO/Parts/Specification/CharacteristicsValue/ValidityPeriod/ToDate/[xsd:choice]/Date,Attribute,Date. Type,xsd:date,0..1, ,'2018-05-06',
 ,/SubscriptionProfileVBO/Parts/Specification/CharacteristicsValue/characteristicName,Attribute,Text. Type,xsd:string,0..1, ,,The name of the characteristic
 ,/SubscriptionProfileVBO/Parts/Specification/CharacteristicsValue/actionCode,Field,Code. Type,xsd:CodeType,0..1, ,'token',The @actionCode attribute is used within a modification operation to indicate the action (add  update  delete) intended on a component.
 ,/SubscriptionProfileVBO/Parts/Specification/Extension,Field, ,xsd:string,0..1, ,,
 ,/SubscriptionProfileVBO/Parts/Specification/Extension/IMSI,Field, ,xsd:string,0..1, ,,A field representing the IMSI (International Mobile Subscriber Identity).
 ,/SubscriptionProfileVBO/Parts/Specification/Extension/IMSI/languageID,Attribute,Identifier. Type,xsd:language,0..1, ,'123',Language. Identifier
 ,/SubscriptionProfileVBO/Parts/Specification/Extension/IMSI/languageLocaleID,Attribute,Identifier. Type,xsd:token,0..1, ,'123',Language Locale. Identifier
 ,/SubscriptionProfileVBO/Parts/Specification/Extension/ICCID,Field,Identifier. Type,xsd:string,0..1, ,'123',A field representing the ICCID (Integrated Circuit Card Identifier).
 ,/SubscriptionProfileVBO/Parts/Specification/Extension/ICCID/languageID,Attribute,Identifier. Type,xsd:language,0..1, ,'123',Language. Identifier
 ,/SubscriptionProfileVBO/Parts/Specification/Extension/ICCID/languageLocaleID,Attribute,Identifier. Type,xsd:token,0..1, ,'123',Language Locale. Identifier
 ,/SubscriptionProfileVBO/Parts/Specification/Extension/AntiFraudIndicator,Field,Indicator. Type,xsd:boolean,0..1, ,'TRUE',A field representing the IMSI (International Mobile Subscriber Identity).
 ,/SubscriptionProfileVBO/Parts/Specification/Extension/AntiFraudIndicator/[xsd:choice]/IndicatorString,Collection, ,xsd:string,0..1, ,,
 ,/SubscriptionProfileVBO/Parts/Specification/Extension/AntiFraudIndicator/[xsd:choice]/IndicatorString/format,Attribute, ,xsd:string,0..1, ,,
 ,/SubscriptionProfileVBO/Parts/Specification/Extension/AntiFraudIndicator/[xsd:choice]/Indicator,Attribute,Indicator. Type,xsd:boolean,0..1, ,'TRUE',
 ,/SubscriptionProfileVBO/Parts/Extension,Field, ,xsd:string,0..1, ,,
 ,/SubscriptionProfileVBO/Extension,Field, ,xsd:string,0..1, ,,
